mc16_13TeV:mc16_13TeV.410560.MadGraphPythia8EvtGen_A14_tZ_4fl_tchan_noAllHad.deriv.DAOD_SUSY3.e5803_e5984_s3126_r10201_r10210_p3529
mc16_13TeV:mc16_13TeV.410644.PowhegPythia8EvtGen_A14_singletop_schan_lept_top.deriv.DAOD_SUSY3.e6527_e5984_s3126_r10201_r10210_p3529
mc16_13TeV:mc16_13TeV.410645.PowhegPythia8EvtGen_A14_singletop_schan_lept_antitop.deriv.DAOD_SUSY3.e6527_s3126_r10201_r10210_p3529
mc16_13TeV:mc16_13TeV.410646.PowhegPythia8EvtGen_A14_Wt_DR_inclusive_top.deriv.DAOD_SUSY3.e6552_e5984_s3126_r10201_r10210_p3529
mc16_13TeV:mc16_13TeV.410647.PowhegPythia8EvtGen_A14_Wt_DR_inclusive_antitop.deriv.DAOD_SUSY3.e6552_e5984_s3126_r10201_r10210_p3529
