mc16_13TeV:mc16_13TeV.410155.aMcAtNloPythia8EvtGen_MEN30NLO_A14N23LO_ttW.deriv.DAOD_SUSY3.e5070_e5984_s3126_r10201_r10210_p3529
mc16_13TeV:mc16_13TeV.410156.aMcAtNloPythia8EvtGen_MEN30NLO_A14N23LO_ttZnunu.deriv.DAOD_SUSY3.e5070_e5984_s3126_r10201_r10210_p3529
mc16_13TeV:mc16_13TeV.410157.aMcAtNloPythia8EvtGen_MEN30NLO_A14N23LO_ttZqq.deriv.DAOD_SUSY3.e5070_e5984_s3126_r10201_r10210_p3529
mc16_13TeV:mc16_13TeV.410218.aMcAtNloPythia8EvtGen_MEN30NLO_A14N23LO_ttee.deriv.DAOD_SUSY3.e5070_e5984_s3126_r10201_r10210_p3529
mc16_13TeV:mc16_13TeV.410219.aMcAtNloPythia8EvtGen_MEN30NLO_A14N23LO_ttmumu.deriv.DAOD_SUSY3.e5070_e5984_s3126_r10201_r10210_p3529
mc16_13TeV:mc16_13TeV.410220.aMcAtNloPythia8EvtGen_MEN30NLO_A14N23LO_tttautau.deriv.DAOD_SUSY3.e5070_e5984_s3126_r10201_r10210_p3529
