user.liuya:user.liuya.mc16_13TeV.304014.S3.DS_Yang_NtpluesProduction_Medium_v15a.e4324_s3126_r9364_r9315_p3529_XAMPP
user.liuya:user.liuya.mc16_13TeV.342284.S3.DS_Yang_NtpluesProduction_Medium_v15a.e4246_s3126_r9364_r9315_p3529_XAMPP
user.liuya:user.liuya.mc16_13TeV.342285.S3.DS_Yang_NtpluesProduction_Medium_v15a.e4246_s3126_r9364_r9315_p3529_XAMPP
user.liuya:user.liuya.mc16_13TeV.343367.S3.DS_Yang_NtpluesProduction_Medium_v15a.e4706_e5984_s3126_r9364_r9315_p3529_XAMPP
user.liuya:user.liuya.mc16_13TeV.345120.S3.DS_Yang_NtpluesProduction_Medium_v15a.e5814_e5984_s3126_r9364_r9315_p3529_XAMPP
user.liuya:user.liuya.mc16_13TeV.345121.S3.DS_Yang_NtpluesProduction_Medium_v15a.e5814_e5984_s3126_r9364_r9315_p3529_XAMPP
user.liuya:user.liuya.mc16_13TeV.345122.S3.DS_Yang_NtpluesProduction_Medium_v15a.e5814_e5984_s3126_r9364_r9315_p3529_XAMPP
user.liuya:user.liuya.mc16_13TeV.345123.S3.DS_Yang_NtpluesProduction_Medium_v15a.e5814_e5984_s3126_r9364_r9315_p3529_XAMPP
user.liuya:user.liuya.mc16_13TeV.345124.S3.DS_Yang_NtpluesProduction_Medium_v15a.e5814_e5984_s3126_r9364_r9315_p3529_XAMPP
user.liuya:user.liuya.mc16_13TeV.345125.S3.DS_Yang_NtpluesProduction_Medium_v15a.e5814_e5984_s3126_r9364_r9315_p3529_XAMPP
user.liuya:user.liuya.mc16_13TeV.345723.S3.DS_Yang_NtpluesProduction_Medium_v15a.e6213_e5984_s3126_r9364_r9315_p3529_XAMPP
user.liuya:user.liuya.mc16_13TeV.363355.S3.DS_Yang_NtpluesProduction_Medium_v15a.e5525_s3126_r9364_r9315_p3529_XAMPP
user.liuya:user.liuya.mc16_13TeV.363356.S3.DS_Yang_NtpluesProduction_Medium_v15a.e5525_s3126_r9364_r9315_p3529_XAMPP
user.liuya:user.liuya.mc16_13TeV.363357.S3.DS_Yang_NtpluesProduction_Medium_v15a.e5525_s3126_r9364_r9315_p3529_XAMPP
user.liuya:user.liuya.mc16_13TeV.363358.S3.DS_Yang_NtpluesProduction_Medium_v15a.e5525_s3126_r9364_r9315_p3529_XAMPP
user.liuya:user.liuya.mc16_13TeV.363359.S3.DS_Yang_NtpluesProduction_Medium_v15a.e5583_s3126_r9364_r9315_p3529_XAMPP
user.liuya:user.liuya.mc16_13TeV.363360.S3.DS_Yang_NtpluesProduction_Medium_v15a.e5983_s3126_r9364_r9315_p3529_XAMPP
user.liuya:user.liuya.mc16_13TeV.363489.S3.DS_Yang_NtpluesProduction_Medium_v15a.e5525_s3126_r9364_r9315_p3529_XAMPP
user.liuya:user.liuya.mc16_13TeV.363494.S3.DS_Yang_NtpluesProduction_Medium_v15a.e5332_s3126_r9364_r9315_p3529_XAMPP
user.liuya:user.liuya.mc16_13TeV.364100.S3.DS_Yang_NtpluesProduction_Medium_v15a.e5271_s3126_r9364_r9315_p3529_XAMPP
user.liuya:user.liuya.mc16_13TeV.364101.S3.DS_Yang_NtpluesProduction_Medium_v15a.e5271_s3126_r9364_r9315_p3529_XAMPP
user.liuya:user.liuya.mc16_13TeV.364102.S3.DS_Yang_NtpluesProduction_Medium_v15a.e5271_s3126_r9364_r9315_p3529_XAMPP
user.liuya:user.liuya.mc16_13TeV.364103.S3.DS_Yang_NtpluesProduction_Medium_v15a.e5271_s3126_r9364_r9315_p3529_XAMPP
user.liuya:user.liuya.mc16_13TeV.364104.S3.DS_Yang_NtpluesProduction_Medium_v15a.e5271_s3126_r9364_r9315_p3529_XAMPP
user.liuya:user.liuya.mc16_13TeV.364105.S3.DS_Yang_NtpluesProduction_Medium_v15a.e5271_s3126_r9364_r9315_p3529_XAMPP
user.liuya:user.liuya.mc16_13TeV.364106.S3.DS_Yang_NtpluesProduction_Medium_v15a.e5271_s3126_r9364_r9315_p3529_XAMPP
user.liuya:user.liuya.mc16_13TeV.364107.S3.DS_Yang_NtpluesProduction_Medium_v15a.e5271_s3126_r9364_r9315_p3529_XAMPP
user.liuya:user.liuya.mc16_13TeV.364108.S3.DS_Yang_NtpluesProduction_Medium_v15a.e5271_s3126_r9364_r9315_p3529_XAMPP
user.liuya:user.liuya.mc16_13TeV.364109.S3.DS_Yang_NtpluesProduction_Medium_v15a.e5271_s3126_r9364_r9315_p3529_XAMPP
user.liuya:user.liuya.mc16_13TeV.364110.S3.DS_Yang_NtpluesProduction_Medium_v15a.e5271_s3126_r9364_r9315_p3529_XAMPP
user.liuya:user.liuya.mc16_13TeV.364111.S3.DS_Yang_NtpluesProduction_Medium_v15a.e5271_s3126_r9364_r9315_p3529_XAMPP
user.liuya:user.liuya.mc16_13TeV.364112.S3.DS_Yang_NtpluesProduction_Medium_v15a.e5271_s3126_r9364_r9315_p3529_XAMPP
user.liuya:user.liuya.mc16_13TeV.364113.S3.DS_Yang_NtpluesProduction_Medium_v15a.e5271_s3126_r9364_r9315_p3529_XAMPP
user.liuya:user.liuya.mc16_13TeV.364114.S3.DS_Yang_NtpluesProduction_Medium_v15a.e5299_s3126_r9364_r9315_p3529_XAMPP
user.liuya:user.liuya.mc16_13TeV.364115.S3.DS_Yang_NtpluesProduction_Medium_v15a.e5299_s3126_r9364_r9315_p3529_XAMPP
user.liuya:user.liuya.mc16_13TeV.364118.S3.DS_Yang_NtpluesProduction_Medium_v15a.e5299_s3126_r9364_r9315_p3529_XAMPP
user.liuya:user.liuya.mc16_13TeV.364119.S3.DS_Yang_NtpluesProduction_Medium_v15a.e5299_s3126_r9364_r9315_p3529_XAMPP
user.liuya:user.liuya.mc16_13TeV.364120.S3.DS_Yang_NtpluesProduction_Medium_v15a.e5299_s3126_r9364_r9315_p3529_XAMPP
user.liuya:user.liuya.mc16_13TeV.364122.S3.DS_Yang_NtpluesProduction_Medium_v15a.e5299_s3126_r9364_r9315_p3529_XAMPP
user.liuya:user.liuya.mc16_13TeV.364123.S3.DS_Yang_NtpluesProduction_Medium_v15a.e5299_s3126_r9364_r9315_p3529_XAMPP
user.liuya:user.liuya.mc16_13TeV.364124.S3.DS_Yang_NtpluesProduction_Medium_v15a.e5299_s3126_r9364_r9315_p3529_XAMPP
user.liuya:user.liuya.mc16_13TeV.364125.S3.DS_Yang_NtpluesProduction_Medium_v15a.e5299_s3126_r9364_r9315_p3529_XAMPP
user.liuya:user.liuya.mc16_13TeV.364126.S3.DS_Yang_NtpluesProduction_Medium_v15a.e5299_s3126_r9364_r9315_p3529_XAMPP
user.liuya:user.liuya.mc16_13TeV.364127.S3.DS_Yang_NtpluesProduction_Medium_v15a.e5299_s3126_r9364_r9315_p3529_XAMPP
user.liuya:user.liuya.mc16_13TeV.364128.S3.DS_Yang_NtpluesProduction_Medium_v15a.e5307_s3126_r9364_r9315_p3529_XAMPP
user.liuya:user.liuya.mc16_13TeV.364129.S3.DS_Yang_NtpluesProduction_Medium_v15a.e5307_s3126_r9364_r9315_p3529_XAMPP
user.liuya:user.liuya.mc16_13TeV.364130.S3.DS_Yang_NtpluesProduction_Medium_v15a.e5307_s3126_r9364_r9315_p3529_XAMPP
user.liuya:user.liuya.mc16_13TeV.364131.S3.DS_Yang_NtpluesProduction_Medium_v15a.e5307_s3126_r9364_r9315_p3529_XAMPP
user.liuya:user.liuya.mc16_13TeV.364132.S3.DS_Yang_NtpluesProduction_Medium_v15a.e5307_s3126_r9364_r9315_p3529_XAMPP
user.liuya:user.liuya.mc16_13TeV.364133.S3.DS_Yang_NtpluesProduction_Medium_v15a.e5307_s3126_r9364_r9315_p3529_XAMPP
user.liuya:user.liuya.mc16_13TeV.364134.S3.DS_Yang_NtpluesProduction_Medium_v15a.e5307_s3126_r9364_r9315_p3563_XAMPP
user.liuya:user.liuya.mc16_13TeV.364135.S3.DS_Yang_NtpluesProduction_Medium_v15a.e5307_s3126_r9364_r9315_p3529_XAMPP
user.liuya:user.liuya.mc16_13TeV.364136.S3.DS_Yang_NtpluesProduction_Medium_v15a.e5307_s3126_r9364_r9315_p3529_XAMPP
user.liuya:user.liuya.mc16_13TeV.364137.S3.DS_Yang_NtpluesProduction_Medium_v15a.e5307_s3126_r9364_r9315_p3529_XAMPP
user.liuya:user.liuya.mc16_13TeV.364138.S3.DS_Yang_NtpluesProduction_Medium_v15a.e5313_s3126_r9364_r9315_p3529_XAMPP
user.liuya:user.liuya.mc16_13TeV.364139.S3.DS_Yang_NtpluesProduction_Medium_v15a.e5313_s3126_r9364_r9315_p3529_XAMPP
user.liuya:user.liuya.mc16_13TeV.364140.S3.DS_Yang_NtpluesProduction_Medium_v15a.e5307_s3126_r9364_r9315_p3529_XAMPP
user.liuya:user.liuya.mc16_13TeV.364141.S3.DS_Yang_NtpluesProduction_Medium_v15a.e5307_s3126_r9364_r9315_p3529_XAMPP
user.liuya:user.liuya.mc16_13TeV.364142.S3.DS_Yang_NtpluesProduction_Medium_v15a.e5308_s3126_r9364_r9315_p3529_XAMPP
user.liuya:user.liuya.mc16_13TeV.364143.S3.DS_Yang_NtpluesProduction_Medium_v15a.e5308_s3126_r9364_r9315_p3529_XAMPP
user.liuya:user.liuya.mc16_13TeV.364144.S3.DS_Yang_NtpluesProduction_Medium_v15a.e5308_s3126_r9364_r9315_p3529_XAMPP
user.liuya:user.liuya.mc16_13TeV.364145.S3.DS_Yang_NtpluesProduction_Medium_v15a.e5308_s3126_r9364_r9315_p3529_XAMPP
user.liuya:user.liuya.mc16_13TeV.364146.S3.DS_Yang_NtpluesProduction_Medium_v15a.e5308_s3126_r9364_r9315_p3529_XAMPP
user.liuya:user.liuya.mc16_13TeV.364147.S3.DS_Yang_NtpluesProduction_Medium_v15a.e5308_s3126_r9364_r9315_p3529_XAMPP
user.liuya:user.liuya.mc16_13TeV.364148.S3.DS_Yang_NtpluesProduction_Medium_v15a.e5308_s3126_r9364_r9315_p3529_XAMPP
user.liuya:user.liuya.mc16_13TeV.364149.S3.DS_Yang_NtpluesProduction_Medium_v15a.e5308_s3126_r9364_r9315_p3529_XAMPP
user.liuya:user.liuya.mc16_13TeV.364150.S3.DS_Yang_NtpluesProduction_Medium_v15a.e5308_e5984_s3126_r9364_r9315_p3529_XAMPP
user.liuya:user.liuya.mc16_13TeV.364151.S3.DS_Yang_NtpluesProduction_Medium_v15a.e5308_s3126_r9364_r9315_p3529_XAMPP
user.liuya:user.liuya.mc16_13TeV.364152.S3.DS_Yang_NtpluesProduction_Medium_v15a.e5308_s3126_r9364_r9315_p3529_XAMPP
user.liuya:user.liuya.mc16_13TeV.364153.S3.DS_Yang_NtpluesProduction_Medium_v15a.e5308_s3126_r9364_r9315_p3529_XAMPP
user.liuya:user.liuya.mc16_13TeV.364154.S3.DS_Yang_NtpluesProduction_Medium_v15a.e5308_s3126_r9364_r9315_p3529_XAMPP
user.liuya:user.liuya.mc16_13TeV.364155.S3.DS_Yang_NtpluesProduction_Medium_v15a.e5308_s3126_r9364_r9315_p3529_XAMPP
user.liuya:user.liuya.mc16_13TeV.364156.S3.DS_Yang_NtpluesProduction_Medium_v15a.e5340_s3126_r9364_r9315_p3529_XAMPP
user.liuya:user.liuya.mc16_13TeV.364157.S3.DS_Yang_NtpluesProduction_Medium_v15a.e5340_s3126_r9364_r9315_p3529_XAMPP
user.liuya:user.liuya.mc16_13TeV.364158.S3.DS_Yang_NtpluesProduction_Medium_v15a.e5340_s3126_r9364_r9315_p3529_XAMPP
user.liuya:user.liuya.mc16_13TeV.364159.S3.DS_Yang_NtpluesProduction_Medium_v15a.e5340_s3126_r9364_r9315_p3529_XAMPP
user.liuya:user.liuya.mc16_13TeV.364160.S3.DS_Yang_NtpluesProduction_Medium_v15a.e5340_s3126_r9364_r9315_p3529_XAMPP
user.liuya:user.liuya.mc16_13TeV.364161.S3.DS_Yang_NtpluesProduction_Medium_v15a.e5340_s3126_r9364_r9315_p3529_XAMPP
user.liuya:user.liuya.mc16_13TeV.364162.S3.DS_Yang_NtpluesProduction_Medium_v15a.e5340_s3126_r9364_r9315_p3529_XAMPP
user.liuya:user.liuya.mc16_13TeV.364163.S3.DS_Yang_NtpluesProduction_Medium_v15a.e5340_s3126_r9364_r9315_p3529_XAMPP
user.liuya:user.liuya.mc16_13TeV.364164.S3.DS_Yang_NtpluesProduction_Medium_v15a.e5340_s3126_r9364_r9315_p3529_XAMPP
user.liuya:user.liuya.mc16_13TeV.364165.S3.DS_Yang_NtpluesProduction_Medium_v15a.e5340_s3126_r9364_r9315_p3529_XAMPP
user.liuya:user.liuya.mc16_13TeV.364166.S3.DS_Yang_NtpluesProduction_Medium_v15a.e5340_s3126_r9364_r9315_p3529_XAMPP
user.liuya:user.liuya.mc16_13TeV.364167.S3.DS_Yang_NtpluesProduction_Medium_v15a.e5340_s3126_r9364_r9315_p3529_XAMPP
user.liuya:user.liuya.mc16_13TeV.364168.S3.DS_Yang_NtpluesProduction_Medium_v15a.e5340_s3126_r9364_r9315_p3529_XAMPP
user.liuya:user.liuya.mc16_13TeV.364169.S3.DS_Yang_NtpluesProduction_Medium_v15a.e5340_s3126_r9364_r9315_p3529_XAMPP
user.liuya:user.liuya.mc16_13TeV.364170.S3.DS_Yang_NtpluesProduction_Medium_v15a.e5340_s3126_r9364_r9315_p3529_XAMPP
user.liuya:user.liuya.mc16_13TeV.364171.S3.DS_Yang_NtpluesProduction_Medium_v15a.e5340_s3126_r9364_r9315_p3529_XAMPP
user.liuya:user.liuya.mc16_13TeV.364172.S3.DS_Yang_NtpluesProduction_Medium_v15a.e5340_s3126_r9364_r9315_p3529_XAMPP
user.liuya:user.liuya.mc16_13TeV.364173.S3.DS_Yang_NtpluesProduction_Medium_v15a.e5340_s3126_r9364_r9315_p3529_XAMPP
user.liuya:user.liuya.mc16_13TeV.364174.S3.DS_Yang_NtpluesProduction_Medium_v15a.e5340_s3126_r9364_r9315_p3529_XAMPP
user.liuya:user.liuya.mc16_13TeV.364175.S3.DS_Yang_NtpluesProduction_Medium_v15a.e5340_s3126_r9364_r9315_p3529_XAMPP
user.liuya:user.liuya.mc16_13TeV.364176.S3.DS_Yang_NtpluesProduction_Medium_v15a.e5340_s3126_r9364_r9315_p3529_XAMPP
user.liuya:user.liuya.mc16_13TeV.364177.S3.DS_Yang_NtpluesProduction_Medium_v15a.e5340_s3126_r9364_r9315_p3529_XAMPP
user.liuya:user.liuya.mc16_13TeV.364179.S3.DS_Yang_NtpluesProduction_Medium_v15a.e5340_s3126_r9364_r9315_p3529_XAMPP
user.liuya:user.liuya.mc16_13TeV.364180.S3.DS_Yang_NtpluesProduction_Medium_v15a.e5340_s3126_r9364_r9315_p3529_XAMPP
user.liuya:user.liuya.mc16_13TeV.364181.S3.DS_Yang_NtpluesProduction_Medium_v15a.e5340_s3126_r9364_r9315_p3529_XAMPP
user.liuya:user.liuya.mc16_13TeV.364182.S3.DS_Yang_NtpluesProduction_Medium_v15a.e5340_s3126_r9364_r9315_p3529_XAMPP
user.liuya:user.liuya.mc16_13TeV.364183.S3.DS_Yang_NtpluesProduction_Medium_v15a.e5340_s3126_r9364_r9315_p3529_XAMPP
user.liuya:user.liuya.mc16_13TeV.364184.S3.DS_Yang_NtpluesProduction_Medium_v15a.e5340_s3126_r9364_r9315_p3529_XAMPP
user.liuya:user.liuya.mc16_13TeV.364185.S3.DS_Yang_NtpluesProduction_Medium_v15a.e5340_s3126_r9364_r9315_p3529_XAMPP
user.liuya:user.liuya.mc16_13TeV.364186.S3.DS_Yang_NtpluesProduction_Medium_v15a.e5340_s3126_r9364_r9315_p3529_XAMPP
user.liuya:user.liuya.mc16_13TeV.364187.S3.DS_Yang_NtpluesProduction_Medium_v15a.e5340_s3126_r9364_r9315_p3529_XAMPP
user.liuya:user.liuya.mc16_13TeV.364188.S3.DS_Yang_NtpluesProduction_Medium_v15a.e5340_s3126_r9364_r9315_p3529_XAMPP
user.liuya:user.liuya.mc16_13TeV.364189.S3.DS_Yang_NtpluesProduction_Medium_v15a.e5340_s3126_r9364_r9315_p3529_XAMPP
user.liuya:user.liuya.mc16_13TeV.364190.S3.DS_Yang_NtpluesProduction_Medium_v15a.e5340_s3126_r9364_r9315_p3529_XAMPP
user.liuya:user.liuya.mc16_13TeV.364191.S3.DS_Yang_NtpluesProduction_Medium_v15a.e5340_s3126_r9364_r9315_p3529_XAMPP
user.liuya:user.liuya.mc16_13TeV.364192.S3.DS_Yang_NtpluesProduction_Medium_v15a.e5340_s3126_r9364_r9315_p3529_XAMPP
user.liuya:user.liuya.mc16_13TeV.364193.S3.DS_Yang_NtpluesProduction_Medium_v15a.e5340_s3126_r9364_r9315_p3529_XAMPP
user.liuya:user.liuya.mc16_13TeV.364194.S3.DS_Yang_NtpluesProduction_Medium_v15a.e5340_s3126_r9364_r9315_p3529_XAMPP
user.liuya:user.liuya.mc16_13TeV.364195.S3.DS_Yang_NtpluesProduction_Medium_v15a.e5340_s3126_r9364_r9315_p3529_XAMPP
user.liuya:user.liuya.mc16_13TeV.364196.S3.DS_Yang_NtpluesProduction_Medium_v15a.e5340_s3126_r9364_r9315_p3529_XAMPP
user.liuya:user.liuya.mc16_13TeV.364197.S3.DS_Yang_NtpluesProduction_Medium_v15a.e5340_s3126_r9364_r9315_p3563_XAMPP
user.liuya:user.liuya.mc16_13TeV.364198.S3.DS_Yang_NtpluesProduction_Medium_v15a.e5421_s3126_r9364_r9315_p3529_XAMPP
user.liuya:user.liuya.mc16_13TeV.364199.S3.DS_Yang_NtpluesProduction_Medium_v15a.e5421_s3126_r9364_r9315_p3529_XAMPP
user.liuya:user.liuya.mc16_13TeV.364200.S3.DS_Yang_NtpluesProduction_Medium_v15a.e5421_s3126_r9364_r9315_p3529_XAMPP
user.liuya:user.liuya.mc16_13TeV.364201.S3.DS_Yang_NtpluesProduction_Medium_v15a.e5421_s3126_r9364_r9315_p3529_XAMPP
user.liuya:user.liuya.mc16_13TeV.364202.S3.DS_Yang_NtpluesProduction_Medium_v15a.e5421_s3126_r9364_r9315_p3529_XAMPP
user.liuya:user.liuya.mc16_13TeV.364203.S3.DS_Yang_NtpluesProduction_Medium_v15a.e5421_s3126_r9364_r9315_p3529_XAMPP
user.liuya:user.liuya.mc16_13TeV.364204.S3.DS_Yang_NtpluesProduction_Medium_v15a.e5421_s3126_r9364_r9315_p3529_XAMPP
user.liuya:user.liuya.mc16_13TeV.364205.S3.DS_Yang_NtpluesProduction_Medium_v15a.e5421_s3126_r9364_r9315_p3529_XAMPP
user.liuya:user.liuya.mc16_13TeV.364206.S3.DS_Yang_NtpluesProduction_Medium_v15a.e5421_s3126_r9364_r9315_p3529_XAMPP
user.liuya:user.liuya.mc16_13TeV.364207.S3.DS_Yang_NtpluesProduction_Medium_v15a.e5421_s3126_r9364_r9315_p3529_XAMPP
user.liuya:user.liuya.mc16_13TeV.364208.S3.DS_Yang_NtpluesProduction_Medium_v15a.e5421_s3126_r9364_r9315_p3529_XAMPP
user.liuya:user.liuya.mc16_13TeV.364209.S3.DS_Yang_NtpluesProduction_Medium_v15a.e5421_s3126_r9364_r9315_p3529_XAMPP
user.liuya:user.liuya.mc16_13TeV.364210.S3.DS_Yang_NtpluesProduction_Medium_v15a.e5421_s3126_r9364_r9315_p3529_XAMPP
user.liuya:user.liuya.mc16_13TeV.364211.S3.DS_Yang_NtpluesProduction_Medium_v15a.e5421_s3126_r9364_r9315_p3529_XAMPP
user.liuya:user.liuya.mc16_13TeV.364212.S3.DS_Yang_NtpluesProduction_Medium_v15a.e5421_s3126_r9364_r9315_p3529_XAMPP
user.liuya:user.liuya.mc16_13TeV.364213.S3.DS_Yang_NtpluesProduction_Medium_v15a.e5421_s3126_r9364_r9315_p3529_XAMPP
user.liuya:user.liuya.mc16_13TeV.364214.S3.DS_Yang_NtpluesProduction_Medium_v15a.e5421_s3126_r9364_r9315_p3529_XAMPP
user.liuya:user.liuya.mc16_13TeV.364215.S3.DS_Yang_NtpluesProduction_Medium_v15a.e5421_s3126_r9364_r9315_p3529_XAMPP
user.liuya:user.liuya.mc16_13TeV.364242.S3.DS_Yang_NtpluesProduction_Medium_v15a.e5887_s3126_r9364_r9315_p3529_XAMPP
user.liuya:user.liuya.mc16_13TeV.364243.S3.DS_Yang_NtpluesProduction_Medium_v15a.e5887_s3126_r9364_r9315_p3529_XAMPP
user.liuya:user.liuya.mc16_13TeV.364244.S3.DS_Yang_NtpluesProduction_Medium_v15a.e5887_s3126_r9364_r9315_p3529_XAMPP
user.liuya:user.liuya.mc16_13TeV.364245.S3.DS_Yang_NtpluesProduction_Medium_v15a.e5887_s3126_r9364_r9315_p3529_XAMPP
user.liuya:user.liuya.mc16_13TeV.364246.S3.DS_Yang_NtpluesProduction_Medium_v15a.e5887_s3126_r9364_r9315_p3529_XAMPP
user.liuya:user.liuya.mc16_13TeV.364247.S3.DS_Yang_NtpluesProduction_Medium_v15a.e5887_s3126_r9364_r9315_p3529_XAMPP
user.liuya:user.liuya.mc16_13TeV.364248.S3.DS_Yang_NtpluesProduction_Medium_v15a.e5887_s3126_r9364_r9315_p3529_XAMPP
user.liuya:user.liuya.mc16_13TeV.364249.S3.DS_Yang_NtpluesProduction_Medium_v15a.e5887_s3126_r9364_r9315_p3529_XAMPP
user.liuya:user.liuya.mc16_13TeV.364253.S3.DS_Yang_NtpluesProduction_Medium_v15a.e5916_s3126_r9364_r9315_p3529_XAMPP
user.liuya:user.liuya.mc16_13TeV.364255.S3.DS_Yang_NtpluesProduction_Medium_v15a.e5916_s3126_r9364_r9315_p3529_XAMPP
user.liuya:user.liuya.mc16_13TeV.364280.S3.DS_Yang_NtpluesProduction_Medium_v15a.e6037_e5984_s3126_r9364_r9315_p3529_XAMPP
user.liuya:user.liuya.mc16_13TeV.364281.S3.DS_Yang_NtpluesProduction_Medium_v15a.e6037_e5984_s3126_r9364_r9315_p3529_XAMPP
user.liuya:user.liuya.mc16_13TeV.364282.S3.DS_Yang_NtpluesProduction_Medium_v15a.e6037_e5984_s3126_r9364_r9315_p3529_XAMPP
user.liuya:user.liuya.mc16_13TeV.364302.S3.DS_Yang_NtpluesProduction_Medium_v15a.e6273_e5984_s3126_r9364_r9315_p3529_XAMPP
user.liuya:user.liuya.mc16_13TeV.364303.S3.DS_Yang_NtpluesProduction_Medium_v15a.e6273_e5984_s3126_r9364_r9315_p3529_XAMPP
user.liuya:user.liuya.mc16_13TeV.364304.S3.DS_Yang_NtpluesProduction_Medium_v15a.e6273_e5984_s3126_r9364_r9315_p3529_XAMPP
user.liuya:user.liuya.mc16_13TeV.364305.S3.DS_Yang_NtpluesProduction_Medium_v15a.e6273_e5984_s3126_r9364_r9315_p3529_XAMPP
user.liuya:user.liuya.mc16_13TeV.396100.S3.DS_Yang_NtpluesProduction_Medium_v15a.e6707_e5984_a875_r9364_r9315_p3563_XAMPP
user.liuya:user.liuya.mc16_13TeV.396101.S3.DS_Yang_NtpluesProduction_Medium_v15a.e6707_e5984_a875_r9364_r9315_p3563_XAMPP
user.liuya:user.liuya.mc16_13TeV.396102.S3.DS_Yang_NtpluesProduction_Medium_v15a.e6707_e5984_a875_r9364_r9315_p3563_XAMPP
user.liuya:user.liuya.mc16_13TeV.396103.S3.DS_Yang_NtpluesProduction_Medium_v15a.e6707_e5984_a875_r9364_r9315_p3563_XAMPP
user.liuya:user.liuya.mc16_13TeV.396104.S3.DS_Yang_NtpluesProduction_Medium_v15a.e6707_e5984_a875_r9364_r9315_p3563_XAMPP
user.liuya:user.liuya.mc16_13TeV.396105.S3.DS_Yang_NtpluesProduction_Medium_v15a.e6707_e5984_a875_r9364_r9315_p3563_XAMPP
user.liuya:user.liuya.mc16_13TeV.396106.S3.DS_Yang_NtpluesProduction_Medium_v15a.e6707_e5984_a875_r9364_r9315_p3563_XAMPP
user.liuya:user.liuya.mc16_13TeV.396107.S3.DS_Yang_NtpluesProduction_Medium_v15a.e6707_e5984_a875_r9364_r9315_p3563_XAMPP
user.liuya:user.liuya.mc16_13TeV.396108.S3.DS_Yang_NtpluesProduction_Medium_v15a.e6707_e5984_a875_r9364_r9315_p3563_XAMPP
user.liuya:user.liuya.mc16_13TeV.396109.S3.DS_Yang_NtpluesProduction_Medium_v15a.e6707_e5984_a875_r9364_r9315_p3563_XAMPP
user.liuya:user.liuya.mc16_13TeV.396110.S3.DS_Yang_NtpluesProduction_Medium_v15a.e6707_e5984_a875_r9364_r9315_p3563_XAMPP
user.liuya:user.liuya.mc16_13TeV.396111.S3.DS_Yang_NtpluesProduction_Medium_v15a.e6707_e5984_a875_r9364_r9315_p3563_XAMPP
user.liuya:user.liuya.mc16_13TeV.396112.S3.DS_Yang_NtpluesProduction_Medium_v15a.e6707_e5984_a875_r9364_r9315_p3563_XAMPP
user.liuya:user.liuya.mc16_13TeV.396113.S3.DS_Yang_NtpluesProduction_Medium_v15a.e6707_e5984_a875_r9364_r9315_p3563_XAMPP
user.liuya:user.liuya.mc16_13TeV.396114.S3.DS_Yang_NtpluesProduction_Medium_v15a.e6707_e5984_a875_r9364_r9315_p3563_XAMPP
user.liuya:user.liuya.mc16_13TeV.407311.S3.DS_Yang_NtpluesProduction_Medium_v15a.e5473_e5984_s3126_s3136_r9364_r9315_p3529_XAMPP
user.liuya:user.liuya.mc16_13TeV.407312.S3.DS_Yang_NtpluesProduction_Medium_v15a.e5473_e5984_s3126_s3136_r9364_r9315_p3529_XAMPP
user.liuya:user.liuya.mc16_13TeV.407313.S3.DS_Yang_NtpluesProduction_Medium_v15a.e5473_e5984_s3126_s3136_r9364_r9315_p3529_XAMPP
user.liuya:user.liuya.mc16_13TeV.407314.S3.DS_Yang_NtpluesProduction_Medium_v15a.e5473_e5984_s3126_s3136_r9364_r9315_p3529_XAMPP
user.liuya:user.liuya.mc16_13TeV.407315.S3.DS_Yang_NtpluesProduction_Medium_v15a.e5655_e5984_s3126_s3136_r9364_r9315_p3529_XAMPP
user.liuya:user.liuya.mc16_13TeV.407321.S3.DS_Yang_NtpluesProduction_Medium_v15a.e5536_s3126_s3136_r9364_r9315_p3529_XAMPP
user.liuya:user.liuya.mc16_13TeV.410080.S3.DS_Yang_NtpluesProduction_Medium_v15a.e4111_s3126_r9364_r9315_p3529_XAMPP
user.liuya:user.liuya.mc16_13TeV.410081.S3.DS_Yang_NtpluesProduction_Medium_v15a.e4111_s3126_r9364_r9315_p3529_XAMPP
user.liuya:user.liuya.mc16_13TeV.410155.S3.DS_Yang_NtpluesProduction_Medium_v15a.e5070_s3126_r9364_r9315_p3529_XAMPP
user.liuya:user.liuya.mc16_13TeV.410156.S3.DS_Yang_NtpluesProduction_Medium_v15a.e5070_s3126_r9364_r9315_p3529_XAMPP
user.liuya:user.liuya.mc16_13TeV.410157.S3.DS_Yang_NtpluesProduction_Medium_v15a.e5070_s3126_r9364_r9315_p3529_XAMPP
user.liuya:user.liuya.mc16_13TeV.410218.S3.DS_Yang_NtpluesProduction_Medium_v15a.e5070_s3126_r9364_r9315_p3529_XAMPP
user.liuya:user.liuya.mc16_13TeV.410219.S3.DS_Yang_NtpluesProduction_Medium_v15a.e5070_s3126_r9364_r9315_p3529_XAMPP
user.liuya:user.liuya.mc16_13TeV.410220.S3.DS_Yang_NtpluesProduction_Medium_v15a.e5070_s3126_r9364_r9315_p3529_XAMPP
user.liuya:user.liuya.mc16_13TeV.410470.S3.DS_Yang_NtpluesProduction_Medium_v15a.e6337_e5984_s3126_r9364_r9315_p3529_XAMPP
user.liuya:user.liuya.mc16_13TeV.410471.S3.DS_Yang_NtpluesProduction_Medium_v15a.e6337_e5984_s3126_r9364_r9315_p3529_XAMPP
user.liuya:user.liuya.mc16_13TeV.410560.S3.DS_Yang_NtpluesProduction_Medium_v15a.e5803_s3126_r9364_r9315_p3529_XAMPP
user.liuya:user.liuya.mc16_13TeV.410644.S3.DS_Yang_NtpluesProduction_Medium_v15a.e6527_e5984_s3126_r9364_r9315_p3529_XAMPP
user.liuya:user.liuya.mc16_13TeV.410645.S3.DS_Yang_NtpluesProduction_Medium_v15a.e6527_e5984_s3126_r9364_r9315_p3529_XAMPP
user.liuya:user.liuya.mc16_13TeV.410646.S3.DS_Yang_NtpluesProduction_Medium_v15a.e6552_e5984_s3126_r9364_r9315_p3529_XAMPP
user.liuya:user.liuya.mc16_13TeV.410647.S3.DS_Yang_NtpluesProduction_Medium_v15a.e6552_e5984_s3126_r9364_r9315_p3529_XAMPP
