mc16_13TeV.396100.MGPy8EG_A14N23LO_StauStau_200p0_1p0_TFilt_mmix_s12.deriv.DAOD_SUSY3.e6707_e5984_a875_r10724_r10726_p3663
mc16_13TeV.396101.MGPy8EG_A14N23LO_StauStau_200p0_1p0_TFilt_mmix_s12_Dm100.deriv.DAOD_SUSY3.e6707_e5984_a875_r10724_r10726_p3663
mc16_13TeV.396103.MGPy8EG_A14N23LO_StauStau_160p0_1p0_TFilt.deriv.DAOD_SUSY3.e6707_e5984_a875_r10724_r10726_p3663
mc16_13TeV.396104.MGPy8EG_A14N23LO_StauStau_200p0_1p0_TFilt.deriv.DAOD_SUSY3.e6707_e5984_a875_r10724_r10726_p3663
mc16_13TeV.396105.MGPy8EG_A14N23LO_StauStau_240p0_1p0_TFilt.deriv.DAOD_SUSY3.e6707_e5984_a875_r10724_r10726_p3663
mc16_13TeV.396106.MGPy8EG_A14N23LO_StauStau_280p0_1p0_TFilt.deriv.DAOD_SUSY3.e6707_e5984_a875_r10724_r10726_p3663
mc16_13TeV.396107.MGPy8EG_A14N23LO_StauStau_120p0_40p0_TFilt.deriv.DAOD_SUSY3.e6707_e5984_a875_r10724_r10726_p3663
mc16_13TeV.396108.MGPy8EG_A14N23LO_StauStau_160p0_40p0_TFilt.deriv.DAOD_SUSY3.e6707_e5984_a875_r10724_r10726_p3663
mc16_13TeV.396109.MGPy8EG_A14N23LO_StauStau_200p0_40p0_TFilt.deriv.DAOD_SUSY3.e6707_e5984_a875_r10724_r10726_p3663
mc16_13TeV.396110.MGPy8EG_A14N23LO_StauStau_240p0_40p0_TFilt.deriv.DAOD_SUSY3.e6707_e5984_a875_r10724_r10726_p3663
mc16_13TeV.396111.MGPy8EG_A14N23LO_StauStau_280p0_40p0_TFilt.deriv.DAOD_SUSY3.e6707_e5984_a875_r10724_r10726_p3663
mc16_13TeV.396112.MGPy8EG_A14N23LO_StauStau_160p0_80p0_TFilt.deriv.DAOD_SUSY3.e6707_e5984_a875_r10724_r10726_p3663
mc16_13TeV.396113.MGPy8EG_A14N23LO_StauStau_240p0_80p0_TFilt.deriv.DAOD_SUSY3.e6707_e5984_a875_r10724_r10726_p3663
mc16_13TeV.397012.MGPy8EG_A14N23LO_StauStau_240p0_120p0_TFilt.deriv.DAOD_SUSY3.e7004_e5984_a875_r10724_r10726_p3663
mc16_13TeV.397014.MGPy8EG_A14N23LO_StauStau_280p0_80p0_TFilt.deriv.DAOD_SUSY3.e7004_e5984_a875_r10724_r10726_p3663
mc16_13TeV.397015.MGPy8EG_A14N23LO_StauStau_280p0_120p0_TFilt.deriv.DAOD_SUSY3.e7004_e5984_a875_r10724_r10726_p3663
mc16_13TeV.397019.MGPy8EG_A14N23LO_StauStau_320p0_80p0_TFilt.deriv.DAOD_SUSY3.e7004_e5984_a875_r10724_r10726_p3663
mc16_13TeV.397020.MGPy8EG_A14N23LO_StauStau_320p0_120p0_TFilt.deriv.DAOD_SUSY3.e7004_e5984_a875_r10724_r10726_p3663
mc16_13TeV.397036.MGPy8EG_A14N23LO_StauStau_340p0_40p0_TFilt.deriv.DAOD_SUSY3.e7004_e5984_a875_r10724_r10726_p3663
mc16_13TeV.397037.MGPy8EG_A14N23LO_StauStau_340p0_1p0_TFilt.deriv.DAOD_SUSY3.e7004_e5984_a875_r10724_r10726_p3663