mc16_13TeV:mc16_13TeV.396100.MGPy8EG_A14N23LO_StauStau_200p0_1p0_TFilt_mmix_s12.deriv.DAOD_SUSY3.e6707_e5984_a875_r9364_r9315_p3663
mc16_13TeV:mc16_13TeV.396101.MGPy8EG_A14N23LO_StauStau_200p0_1p0_TFilt_mmix_s12_Dm100.deriv.DAOD_SUSY3.e6707_e5984_a875_r9364_r9315_p3663
mc16_13TeV:mc16_13TeV.396102.MGPy8EG_A14N23LO_StauStau_120p0_1p0_TFilt.deriv.DAOD_SUSY3.e6707_e5984_a875_r9364_r9315_p3663
mc16_13TeV:mc16_13TeV.396103.MGPy8EG_A14N23LO_StauStau_160p0_1p0_TFilt.deriv.DAOD_SUSY3.e6707_e5984_a875_r9364_r9315_p3663
mc16_13TeV:mc16_13TeV.396104.MGPy8EG_A14N23LO_StauStau_200p0_1p0_TFilt.deriv.DAOD_SUSY3.e6707_e5984_a875_r9364_r9315_p3663
mc16_13TeV:mc16_13TeV.396105.MGPy8EG_A14N23LO_StauStau_240p0_1p0_TFilt.deriv.DAOD_SUSY3.e6707_e5984_a875_r9364_r9315_p3663
mc16_13TeV:mc16_13TeV.396106.MGPy8EG_A14N23LO_StauStau_280p0_1p0_TFilt.deriv.DAOD_SUSY3.e6707_e5984_a875_r9364_r9315_p3663
mc16_13TeV:mc16_13TeV.396107.MGPy8EG_A14N23LO_StauStau_120p0_40p0_TFilt.deriv.DAOD_SUSY3.e6707_e5984_a875_r9364_r9315_p3663
mc16_13TeV:mc16_13TeV.396108.MGPy8EG_A14N23LO_StauStau_160p0_40p0_TFilt.deriv.DAOD_SUSY3.e6707_e5984_a875_r9364_r9315_p3663
mc16_13TeV:mc16_13TeV.396109.MGPy8EG_A14N23LO_StauStau_200p0_40p0_TFilt.deriv.DAOD_SUSY3.e6707_e5984_a875_r9364_r9315_p3663
mc16_13TeV:mc16_13TeV.396110.MGPy8EG_A14N23LO_StauStau_240p0_40p0_TFilt.deriv.DAOD_SUSY3.e6707_e5984_a875_r9364_r9315_p3663
mc16_13TeV:mc16_13TeV.396111.MGPy8EG_A14N23LO_StauStau_280p0_40p0_TFilt.deriv.DAOD_SUSY3.e6707_e5984_a875_r9364_r9315_p3663
mc16_13TeV:mc16_13TeV.396112.MGPy8EG_A14N23LO_StauStau_160p0_80p0_TFilt.deriv.DAOD_SUSY3.e6707_e5984_a875_r9364_r9315_p3663
mc16_13TeV:mc16_13TeV.396113.MGPy8EG_A14N23LO_StauStau_240p0_80p0_TFilt.deriv.DAOD_SUSY3.e6707_e5984_a875_r9364_r9315_p3663
mc16_13TeV:mc16_13TeV.397010.MGPy8EG_A14N23LO_StauStau_200p0_80p0_TFilt.deriv.DAOD_SUSY3.e7004_e5984_a875_r9364_r9315_p3663
mc16_13TeV:mc16_13TeV.397011.MGPy8EG_A14N23LO_StauStau_200p0_120p0_TFilt.deriv.DAOD_SUSY3.e7004_e5984_a875_r9364_r9315_p3663
mc16_13TeV:mc16_13TeV.397012.MGPy8EG_A14N23LO_StauStau_240p0_120p0_TFilt.deriv.DAOD_SUSY3.e7004_e5984_a875_r9364_r9315_p3663
mc16_13TeV:mc16_13TeV.397013.MGPy8EG_A14N23LO_StauStau_240p0_160p0_TFilt.deriv.DAOD_SUSY3.e7004_e5984_a875_r9364_r9315_p3663
mc16_13TeV:mc16_13TeV.397014.MGPy8EG_A14N23LO_StauStau_280p0_80p0_TFilt.deriv.DAOD_SUSY3.e7004_e5984_a875_r9364_r9315_p3663
mc16_13TeV:mc16_13TeV.397015.MGPy8EG_A14N23LO_StauStau_280p0_120p0_TFilt.deriv.DAOD_SUSY3.e7004_e5984_a875_r9364_r9315_p3663
mc16_13TeV:mc16_13TeV.397016.MGPy8EG_A14N23LO_StauStau_280p0_160p0_TFilt.deriv.DAOD_SUSY3.e7004_e5984_a875_r9364_r9315_p3663
mc16_13TeV:mc16_13TeV.397017.MGPy8EG_A14N23LO_StauStau_320p0_1p0_TFilt.deriv.DAOD_SUSY3.e7004_e5984_a875_r9364_r9315_p3712
mc16_13TeV:mc16_13TeV.397018.MGPy8EG_A14N23LO_StauStau_320p0_40p0_TFilt.deriv.DAOD_SUSY3.e7004_e5984_a875_r9364_r9315_p3663
mc16_13TeV:mc16_13TeV.397019.MGPy8EG_A14N23LO_StauStau_320p0_80p0_TFilt.deriv.DAOD_SUSY3.e7004_e5984_a875_r9364_r9315_p3663
mc16_13TeV:mc16_13TeV.397020.MGPy8EG_A14N23LO_StauStau_320p0_120p0_TFilt.deriv.DAOD_SUSY3.e7004_e5984_a875_r9364_r9315_p3663
mc16_13TeV:mc16_13TeV.397021.MGPy8EG_A14N23LO_StauStau_320p0_160p0_TFilt.deriv.DAOD_SUSY3.e7004_e5984_a875_r9364_r9315_p3663
mc16_13TeV:mc16_13TeV.397022.MGPy8EG_A14N23LO_StauStau_360p0_1p0_TFilt.deriv.DAOD_SUSY3.e7004_e5984_a875_r9364_r9315_p3663
mc16_13TeV:mc16_13TeV.397023.MGPy8EG_A14N23LO_StauStau_360p0_40p0_TFilt.deriv.DAOD_SUSY3.e7004_e5984_a875_r9364_r9315_p3663
mc16_13TeV:mc16_13TeV.397024.MGPy8EG_A14N23LO_StauStau_360p0_80p0_TFilt.deriv.DAOD_SUSY3.e7004_e5984_a875_r9364_r9315_p3663
mc16_13TeV:mc16_13TeV.397025.MGPy8EG_A14N23LO_StauStau_360p0_120p0_TFilt.deriv.DAOD_SUSY3.e7004_e5984_a875_r9364_r9315_p3663
mc16_13TeV:mc16_13TeV.397026.MGPy8EG_A14N23LO_StauStau_400p0_1p0_TFilt.deriv.DAOD_SUSY3.e7004_e5984_a875_r9364_r9315_p3663
mc16_13TeV:mc16_13TeV.397027.MGPy8EG_A14N23LO_StauStau_400p0_80p0_TFilt.deriv.DAOD_SUSY3.e7004_e5984_a875_r9364_r9315_p3663
mc16_13TeV:mc16_13TeV.397028.MGPy8EG_A14N23LO_StauStau_400p0_160p0_TFilt.deriv.DAOD_SUSY3.e7004_e5984_a875_r9364_r9315_p3663
mc16_13TeV:mc16_13TeV.397029.MGPy8EG_A14N23LO_StauStau_440p0_40p0_TFilt.deriv.DAOD_SUSY3.e7004_e5984_a875_r9364_r9315_p3663
mc16_13TeV:mc16_13TeV.397030.MGPy8EG_A14N23LO_StauStau_440p0_1p0_TFilt.deriv.DAOD_SUSY3.e7004_e5984_a875_r9364_r9315_p3663
mc16_13TeV:mc16_13TeV.397031.MGPy8EG_A14N23LO_StauStau_400p0_120p0_TFilt.deriv.DAOD_SUSY3.e7004_e5984_a875_r9364_r9315_p3663
mc16_13TeV:mc16_13TeV.397032.MGPy8EG_A14N23LO_StauStau_400p0_40p0_TFilt.deriv.DAOD_SUSY3.e7004_e5984_a875_r9364_r9315_p3663
mc16_13TeV:mc16_13TeV.397033.MGPy8EG_A14N23LO_StauStau_360p0_200p0_TFilt.deriv.DAOD_SUSY3.e7004_e5984_a875_r9364_r9315_p3663
mc16_13TeV:mc16_13TeV.397034.MGPy8EG_A14N23LO_StauStau_360p0_160p0_TFilt.deriv.DAOD_SUSY3.e7004_e5984_a875_r9364_r9315_p3663
mc16_13TeV:mc16_13TeV.397035.MGPy8EG_A14N23LO_StauStau_380p0_1p0_TFilt.deriv.DAOD_SUSY3.e7004_e5984_a875_r9364_r9315_p3663
mc16_13TeV:mc16_13TeV.397036.MGPy8EG_A14N23LO_StauStau_340p0_40p0_TFilt.deriv.DAOD_SUSY3.e7004_e5984_a875_r9364_r9315_p3663
mc16_13TeV:mc16_13TeV.397037.MGPy8EG_A14N23LO_StauStau_340p0_1p0_TFilt.deriv.DAOD_SUSY3.e7004_e5984_a875_r9364_r9315_p3663
mc16_13TeV:mc16_13TeV.397038.MGPy8EG_A14N23LO_StauStau_320p0_200p0_TFilt.deriv.DAOD_SUSY3.e7004_e5984_a875_r9364_r9315_p3663
mc16_13TeV:mc16_13TeV.397039.MGPy8EG_A14N23LO_StauStau_300p0_40p0_TFilt.deriv.DAOD_SUSY3.e7004_e5984_a875_r9364_r9315_p3663
mc16_13TeV:mc16_13TeV.397040.MGPy8EG_A14N23LO_StauStau_300p0_1p0_TFilt.deriv.DAOD_SUSY3.e7004_e5984_a875_r9364_r9315_p3663
mc16_13TeV:mc16_13TeV.397041.MGPy8EG_A14N23LO_StauStau_260p0_40p0_TFilt.deriv.DAOD_SUSY3.e7004_e5984_a875_r9364_r9315_p3663
mc16_13TeV:mc16_13TeV.397042.MGPy8EG_A14N23LO_StauStau_260p0_1p0_TFilt.deriv.DAOD_SUSY3.e7004_e5984_a875_r9364_r9315_p3663
mc16_13TeV:mc16_13TeV.397043.MGPy8EG_A14N23LO_StauStau_220p0_40p0_TFilt.deriv.DAOD_SUSY3.e7004_e5984_a875_r9364_r9315_p3663
mc16_13TeV:mc16_13TeV.397044.MGPy8EG_A14N23LO_StauStau_220p0_1p0_TFilt.deriv.DAOD_SUSY3.e7004_e5984_a875_r9364_r9315_p3663
mc16_13TeV:mc16_13TeV.397045.MGPy8EG_A14N23LO_StauStau_180p0_40p0_TFilt.deriv.DAOD_SUSY3.e7004_e5984_a875_r9364_r9315_p3663
mc16_13TeV:mc16_13TeV.397046.MGPy8EG_A14N23LO_StauStau_180p0_1p0_TFilt.deriv.DAOD_SUSY3.e7004_e5984_a875_r9364_r9315_p3663
mc16_13TeV:mc16_13TeV.397047.MGPy8EG_A14N23LO_StauStau_140p0_40p0_TFilt.deriv.DAOD_SUSY3.e7004_e5984_a875_r9364_r9315_p3712
mc16_13TeV:mc16_13TeV.397048.MGPy8EG_A14N23LO_StauStau_140p0_1p0_TFilt.deriv.DAOD_SUSY3.e7004_e5984_a875_r9364_r9315_p3663
mc16_13TeV:mc16_13TeV.397049.MGPy8EG_A14N23LO_StauStau_100p0_1p0_TFilt.deriv.DAOD_SUSY3.e7004_e5984_a875_r9364_r9315_p3663
