user.fkrieter:user.fkrieter.mc16_13TeV.396102.S3.CC3_mc16a_sig.e6707_e5984_a875_r9364_r9315_p3563_XAMPP
user.fkrieter:user.fkrieter.mc16_13TeV.396103.S3.CC3_mc16a_sig.e6707_e5984_a875_r9364_r9315_p3563_XAMPP
user.fkrieter:user.fkrieter.mc16_13TeV.396104.S3.CC3_mc16a_sig.e6707_e5984_a875_r9364_r9315_p3563_XAMPP
user.fkrieter:user.fkrieter.mc16_13TeV.396105.S3.CC3_mc16a_sig.e6707_e5984_a875_r9364_r9315_p3563_XAMPP
user.fkrieter:user.fkrieter.mc16_13TeV.396106.S3.CC3_mc16a_sig.e6707_e5984_a875_r9364_r9315_p3563_XAMPP
user.fkrieter:user.fkrieter.mc16_13TeV.396107.S3.CC3_mc16a_sig.e6707_e5984_a875_r9364_r9315_p3563_XAMPP
user.fkrieter:user.fkrieter.mc16_13TeV.396108.S3.CC3_mc16a_sig.e6707_e5984_a875_r9364_r9315_p3563_XAMPP
user.fkrieter:user.fkrieter.mc16_13TeV.396109.S3.CC3_mc16a_sig.e6707_e5984_a875_r9364_r9315_p3563_XAMPP
user.fkrieter:user.fkrieter.mc16_13TeV.396110.S3.CC3_mc16a_sig.e6707_e5984_a875_r9364_r9315_p3563_XAMPP
user.fkrieter:user.fkrieter.mc16_13TeV.396111.S3.CC3_mc16a_sig.e6707_e5984_a875_r9364_r9315_p3563_XAMPP
user.fkrieter:user.fkrieter.mc16_13TeV.396112.S3.CC3_mc16a_sig.e6707_e5984_a875_r9364_r9315_p3563_XAMPP
user.fkrieter:user.fkrieter.mc16_13TeV.396113.S3.CC3_mc16a_sig.e6707_e5984_a875_r9364_r9315_p3563_XAMPP
user.fkrieter:user.fkrieter.mc16_13TeV.396114.S3.CC3_mc16a_sig.e6707_e5984_a875_r9364_r9315_p3563_XAMPP
