# ttbar (https://twiki.cern.ch/twiki/bin/viewauth/AtlasProtected/TopFocusGroup)
mc16_13TeV:mc16_13TeV.410470.PhPy8EG_A14_ttbar_hdamp258p75_nonallhad.deriv.DAOD_SUSY3.e6337_s3126_r10724_p3652
mc16_13TeV:mc16_13TeV.410471.PhPy8EG_A14_ttbar_hdamp258p75_allhad.deriv.DAOD_SUSY3.e6337_s3126_r10724_p3652

# single-top (https://twiki.cern.ch/twiki/bin/viewauth/AtlasProtected/TopFocusGroup)
mc16_13TeV:mc16_13TeV.410644.PowhegPythia8EvtGen_A14_singletop_schan_lept_top.deriv.DAOD_SUSY3.e6527_s3126_r10724_p3652
mc16_13TeV:mc16_13TeV.410645.PowhegPythia8EvtGen_A14_singletop_schan_lept_antitop.deriv.DAOD_SUSY3.e6527_s3126_r10724_p3652
mc16_13TeV:mc16_13TeV.410646.PowhegPythia8EvtGen_A14_Wt_DR_inclusive_top.deriv.DAOD_SUSY3.e6552_s3126_r10724_p3652
mc16_13TeV:mc16_13TeV.410647.PowhegPythia8EvtGen_A14_Wt_DR_inclusive_antitop.deriv.DAOD_SUSY3.e6552_s3126_r10724_p3652

# tt+X, tZ
mc16_13TeV:mc16_13TeV.410080.MadGraphPythia8EvtGen_A14NNPDF23_4topSM.deriv.DAOD_SUSY3.e4111_s3126_r10724_p3652
mc16_13TeV:mc16_13TeV.410081.MadGraphPythia8EvtGen_A14NNPDF23_ttbarWW.deriv.DAOD_SUSY3.e4111_s3126_r10724_p3652
mc16_13TeV:mc16_13TeV.304014.MadGraphPythia8EvtGen_A14NNPDF23_3top_SM.deriv.DAOD_SUSY3.e4324_s3126_r10724_p3652
mc16_13TeV:mc16_13TeV.407321.MadGraphPythia8EvtGen_A14NNPDF23LO_ttbarWll.deriv.DAOD_SUSY3.e5536_s3126_r10724_p3652
mc16_13TeV:mc16_13TeV.410560.MadGraphPythia8EvtGen_A14_tZ_4fl_tchan_noAllHad.deriv.DAOD_SUSY3.e5803_s3126_r10724_p3652

# W+jets
mc16_13TeV:mc16_13TeV.364156.Sherpa_221_NNPDF30NNLO_Wmunu_MAXHTPTV0_70_CVetoBVeto.deriv.DAOD_SUSY3.e5340_s3126_r10724_p3652
mc16_13TeV:mc16_13TeV.364157.Sherpa_221_NNPDF30NNLO_Wmunu_MAXHTPTV0_70_CFilterBVeto.deriv.DAOD_SUSY3.e5340_s3126_r10724_p3652
mc16_13TeV:mc16_13TeV.364158.Sherpa_221_NNPDF30NNLO_Wmunu_MAXHTPTV0_70_BFilter.deriv.DAOD_SUSY3.e5340_s3126_r10724_p3652
mc16_13TeV:mc16_13TeV.364159.Sherpa_221_NNPDF30NNLO_Wmunu_MAXHTPTV70_140_CVetoBVeto.deriv.DAOD_SUSY3.e5340_s3126_r10724_p3652
mc16_13TeV:mc16_13TeV.364160.Sherpa_221_NNPDF30NNLO_Wmunu_MAXHTPTV70_140_CFilterBVeto.deriv.DAOD_SUSY3.e5340_s3126_r10724_p3652
mc16_13TeV:mc16_13TeV.364161.Sherpa_221_NNPDF30NNLO_Wmunu_MAXHTPTV70_140_BFilter.deriv.DAOD_SUSY3.e5340_s3126_r10724_p3652
mc16_13TeV:mc16_13TeV.364162.Sherpa_221_NNPDF30NNLO_Wmunu_MAXHTPTV140_280_CVetoBVeto.deriv.DAOD_SUSY3.e5340_s3126_r10724_p3652
mc16_13TeV:mc16_13TeV.364163.Sherpa_221_NNPDF30NNLO_Wmunu_MAXHTPTV140_280_CFilterBVeto.deriv.DAOD_SUSY3.e5340_s3126_r10724_p3652
mc16_13TeV:mc16_13TeV.364164.Sherpa_221_NNPDF30NNLO_Wmunu_MAXHTPTV140_280_BFilter.deriv.DAOD_SUSY3.e5340_s3126_r10724_p3652
mc16_13TeV:mc16_13TeV.364165.Sherpa_221_NNPDF30NNLO_Wmunu_MAXHTPTV280_500_CVetoBVeto.deriv.DAOD_SUSY3.e5340_s3126_r10724_p3652
mc16_13TeV:mc16_13TeV.364166.Sherpa_221_NNPDF30NNLO_Wmunu_MAXHTPTV280_500_CFilterBVeto.deriv.DAOD_SUSY3.e5340_s3126_r10724_p3652
mc16_13TeV:mc16_13TeV.364167.Sherpa_221_NNPDF30NNLO_Wmunu_MAXHTPTV280_500_BFilter.deriv.DAOD_SUSY3.e5340_s3126_r10724_p3652
mc16_13TeV:mc16_13TeV.364168.Sherpa_221_NNPDF30NNLO_Wmunu_MAXHTPTV500_1000.deriv.DAOD_SUSY3.e5340_s3126_r10724_p3652
mc16_13TeV:mc16_13TeV.364169.Sherpa_221_NNPDF30NNLO_Wmunu_MAXHTPTV1000_E_CMS.deriv.DAOD_SUSY3.e5340_s3126_r10724_p3652
mc16_13TeV:mc16_13TeV.364170.Sherpa_221_NNPDF30NNLO_Wenu_MAXHTPTV0_70_CVetoBVeto.deriv.DAOD_SUSY3.e5340_s3126_r10724_p3652
mc16_13TeV:mc16_13TeV.364171.Sherpa_221_NNPDF30NNLO_Wenu_MAXHTPTV0_70_CFilterBVeto.deriv.DAOD_SUSY3.e5340_s3126_r10724_p3652
mc16_13TeV:mc16_13TeV.364172.Sherpa_221_NNPDF30NNLO_Wenu_MAXHTPTV0_70_BFilter.deriv.DAOD_SUSY3.e5340_s3126_r10724_p3652
mc16_13TeV:mc16_13TeV.364173.Sherpa_221_NNPDF30NNLO_Wenu_MAXHTPTV70_140_CVetoBVeto.deriv.DAOD_SUSY3.e5340_s3126_r10724_p3652
mc16_13TeV:mc16_13TeV.364174.Sherpa_221_NNPDF30NNLO_Wenu_MAXHTPTV70_140_CFilterBVeto.deriv.DAOD_SUSY3.e5340_s3126_r10724_p3652
mc16_13TeV:mc16_13TeV.364175.Sherpa_221_NNPDF30NNLO_Wenu_MAXHTPTV70_140_BFilter.deriv.DAOD_SUSY3.e5340_s3126_r10724_p3652
mc16_13TeV:mc16_13TeV.364176.Sherpa_221_NNPDF30NNLO_Wenu_MAXHTPTV140_280_CVetoBVeto.deriv.DAOD_SUSY3.e5340_s3126_r10724_p3652
mc16_13TeV:mc16_13TeV.364177.Sherpa_221_NNPDF30NNLO_Wenu_MAXHTPTV140_280_CFilterBVeto.deriv.DAOD_SUSY3.e5340_s3126_r10724_p3652
mc16_13TeV:mc16_13TeV.364178.Sherpa_221_NNPDF30NNLO_Wenu_MAXHTPTV140_280_BFilter.deriv.DAOD_SUSY3.e5340_s3126_r10724_p3652
mc16_13TeV:mc16_13TeV.364179.Sherpa_221_NNPDF30NNLO_Wenu_MAXHTPTV280_500_CVetoBVeto.deriv.DAOD_SUSY3.e5340_s3126_r10724_p3652
mc16_13TeV:mc16_13TeV.364180.Sherpa_221_NNPDF30NNLO_Wenu_MAXHTPTV280_500_CFilterBVeto.deriv.DAOD_SUSY3.e5340_s3126_r10724_p3652
mc16_13TeV:mc16_13TeV.364181.Sherpa_221_NNPDF30NNLO_Wenu_MAXHTPTV280_500_BFilter.deriv.DAOD_SUSY3.e5340_s3126_r10724_p3652
mc16_13TeV:mc16_13TeV.364182.Sherpa_221_NNPDF30NNLO_Wenu_MAXHTPTV500_1000.deriv.DAOD_SUSY3.e5340_s3126_r10724_p3652
mc16_13TeV:mc16_13TeV.364183.Sherpa_221_NNPDF30NNLO_Wenu_MAXHTPTV1000_E_CMS.deriv.DAOD_SUSY3.e5340_s3126_r10724_p3652
mc16_13TeV:mc16_13TeV.364184.Sherpa_221_NNPDF30NNLO_Wtaunu_MAXHTPTV0_70_CVetoBVeto.deriv.DAOD_SUSY3.e5340_s3126_r10724_p3652
mc16_13TeV:mc16_13TeV.364185.Sherpa_221_NNPDF30NNLO_Wtaunu_MAXHTPTV0_70_CFilterBVeto.deriv.DAOD_SUSY3.e5340_s3126_r10724_p3652
mc16_13TeV:mc16_13TeV.364186.Sherpa_221_NNPDF30NNLO_Wtaunu_MAXHTPTV0_70_BFilter.deriv.DAOD_SUSY3.e5340_s3126_r10724_p3652
mc16_13TeV:mc16_13TeV.364187.Sherpa_221_NNPDF30NNLO_Wtaunu_MAXHTPTV70_140_CVetoBVeto.deriv.DAOD_SUSY3.e5340_s3126_r10724_p3652
mc16_13TeV:mc16_13TeV.364188.Sherpa_221_NNPDF30NNLO_Wtaunu_MAXHTPTV70_140_CFilterBVeto.deriv.DAOD_SUSY3.e5340_s3126_r10724_p3652
mc16_13TeV:mc16_13TeV.364189.Sherpa_221_NNPDF30NNLO_Wtaunu_MAXHTPTV70_140_BFilter.deriv.DAOD_SUSY3.e5340_s3126_r10724_p3652
mc16_13TeV:mc16_13TeV.364190.Sherpa_221_NNPDF30NNLO_Wtaunu_MAXHTPTV140_280_CVetoBVeto.deriv.DAOD_SUSY3.e5340_s3126_r10724_p3652
mc16_13TeV:mc16_13TeV.364191.Sherpa_221_NNPDF30NNLO_Wtaunu_MAXHTPTV140_280_CFilterBVeto.deriv.DAOD_SUSY3.e5340_s3126_r10724_p3652
mc16_13TeV:mc16_13TeV.364192.Sherpa_221_NNPDF30NNLO_Wtaunu_MAXHTPTV140_280_BFilter.deriv.DAOD_SUSY3.e5340_s3126_r10724_p3652
mc16_13TeV:mc16_13TeV.364193.Sherpa_221_NNPDF30NNLO_Wtaunu_MAXHTPTV280_500_CVetoBVeto.deriv.DAOD_SUSY3.e5340_s3126_r10724_p3652
mc16_13TeV:mc16_13TeV.364194.Sherpa_221_NNPDF30NNLO_Wtaunu_MAXHTPTV280_500_CFilterBVeto.deriv.DAOD_SUSY3.e5340_s3126_r10724_p3652
mc16_13TeV:mc16_13TeV.364195.Sherpa_221_NNPDF30NNLO_Wtaunu_MAXHTPTV280_500_BFilter.deriv.DAOD_SUSY3.e5340_s3126_r10724_p3652
mc16_13TeV:mc16_13TeV.364196.Sherpa_221_NNPDF30NNLO_Wtaunu_MAXHTPTV500_1000.deriv.DAOD_SUSY3.e5340_s3126_r10724_p3652
mc16_13TeV:mc16_13TeV.364197.Sherpa_221_NNPDF30NNLO_Wtaunu_MAXHTPTV1000_E_CMS.deriv.DAOD_SUSY3.e5340_s3126_r10724_p3652

# Z+jets
mc16_13TeV:mc16_13TeV.364100.Sherpa_221_NNPDF30NNLO_Zmumu_MAXHTPTV0_70_CVetoBVeto.deriv.DAOD_SUSY3.e5271_s3126_r10724_p3652
mc16_13TeV:mc16_13TeV.364101.Sherpa_221_NNPDF30NNLO_Zmumu_MAXHTPTV0_70_CFilterBVeto.deriv.DAOD_SUSY3.e5271_s3126_r10724_p3652
mc16_13TeV:mc16_13TeV.364102.Sherpa_221_NNPDF30NNLO_Zmumu_MAXHTPTV0_70_BFilter.deriv.DAOD_SUSY3.e5271_s3126_r10724_p3652
mc16_13TeV:mc16_13TeV.364103.Sherpa_221_NNPDF30NNLO_Zmumu_MAXHTPTV70_140_CVetoBVeto.deriv.DAOD_SUSY3.e5271_s3126_r10724_p3652
mc16_13TeV:mc16_13TeV.364104.Sherpa_221_NNPDF30NNLO_Zmumu_MAXHTPTV70_140_CFilterBVeto.deriv.DAOD_SUSY3.e5271_s3126_r10724_p3652
mc16_13TeV:mc16_13TeV.364105.Sherpa_221_NNPDF30NNLO_Zmumu_MAXHTPTV70_140_BFilter.deriv.DAOD_SUSY3.e5271_s3126_r10724_p3652
mc16_13TeV:mc16_13TeV.364106.Sherpa_221_NNPDF30NNLO_Zmumu_MAXHTPTV140_280_CVetoBVeto.deriv.DAOD_SUSY3.e5271_s3126_r10724_p3652
mc16_13TeV:mc16_13TeV.364107.Sherpa_221_NNPDF30NNLO_Zmumu_MAXHTPTV140_280_CFilterBVeto.deriv.DAOD_SUSY3.e5271_s3126_r10724_p3652
mc16_13TeV:mc16_13TeV.364108.Sherpa_221_NNPDF30NNLO_Zmumu_MAXHTPTV140_280_BFilter.deriv.DAOD_SUSY3.e5271_s3126_r10724_p3652
mc16_13TeV:mc16_13TeV.364109.Sherpa_221_NNPDF30NNLO_Zmumu_MAXHTPTV280_500_CVetoBVeto.deriv.DAOD_SUSY3.e5271_s3126_r10724_p3652
mc16_13TeV:mc16_13TeV.364110.Sherpa_221_NNPDF30NNLO_Zmumu_MAXHTPTV280_500_CFilterBVeto.deriv.DAOD_SUSY3.e5271_s3126_r10724_p3652
mc16_13TeV:mc16_13TeV.364111.Sherpa_221_NNPDF30NNLO_Zmumu_MAXHTPTV280_500_BFilter.deriv.DAOD_SUSY3.e5271_s3126_r10724_p3652
mc16_13TeV:mc16_13TeV.364112.Sherpa_221_NNPDF30NNLO_Zmumu_MAXHTPTV500_1000.deriv.DAOD_SUSY3.e5271_s3126_r10724_p3652
mc16_13TeV:mc16_13TeV.364113.Sherpa_221_NNPDF30NNLO_Zmumu_MAXHTPTV1000_E_CMS.deriv.DAOD_SUSY3.e5271_s3126_r10724_p3652
mc16_13TeV:mc16_13TeV.364114.Sherpa_221_NNPDF30NNLO_Zee_MAXHTPTV0_70_CVetoBVeto.deriv.DAOD_SUSY3.e5299_s3126_r10724_p3652
mc16_13TeV:mc16_13TeV.364115.Sherpa_221_NNPDF30NNLO_Zee_MAXHTPTV0_70_CFilterBVeto.deriv.DAOD_SUSY3.e5299_s3126_r10724_p3652
mc16_13TeV:mc16_13TeV.364116.Sherpa_221_NNPDF30NNLO_Zee_MAXHTPTV0_70_BFilter.deriv.DAOD_SUSY3.e5299_s3126_r10724_p3652
mc16_13TeV:mc16_13TeV.364117.Sherpa_221_NNPDF30NNLO_Zee_MAXHTPTV70_140_CVetoBVeto.deriv.DAOD_SUSY3.e5299_s3126_r10724_p3652
mc16_13TeV:mc16_13TeV.364118.Sherpa_221_NNPDF30NNLO_Zee_MAXHTPTV70_140_CFilterBVeto.deriv.DAOD_SUSY3.e5299_s3126_r10724_p3652
mc16_13TeV:mc16_13TeV.364119.Sherpa_221_NNPDF30NNLO_Zee_MAXHTPTV70_140_BFilter.deriv.DAOD_SUSY3.e5299_s3126_r10724_p3652
mc16_13TeV:mc16_13TeV.364120.Sherpa_221_NNPDF30NNLO_Zee_MAXHTPTV140_280_CVetoBVeto.deriv.DAOD_SUSY3.e5299_s3126_r10724_p3652
mc16_13TeV:mc16_13TeV.364121.Sherpa_221_NNPDF30NNLO_Zee_MAXHTPTV140_280_CFilterBVeto.deriv.DAOD_SUSY3.e5299_s3126_r10724_p3652
mc16_13TeV:mc16_13TeV.364122.Sherpa_221_NNPDF30NNLO_Zee_MAXHTPTV140_280_BFilter.deriv.DAOD_SUSY3.e5299_s3126_r10724_p3652
mc16_13TeV:mc16_13TeV.364123.Sherpa_221_NNPDF30NNLO_Zee_MAXHTPTV280_500_CVetoBVeto.deriv.DAOD_SUSY3.e5299_s3126_r10724_p3652
mc16_13TeV:mc16_13TeV.364124.Sherpa_221_NNPDF30NNLO_Zee_MAXHTPTV280_500_CFilterBVeto.deriv.DAOD_SUSY3.e5299_s3126_r10724_p3652
mc16_13TeV:mc16_13TeV.364125.Sherpa_221_NNPDF30NNLO_Zee_MAXHTPTV280_500_BFilter.deriv.DAOD_SUSY3.e5299_s3126_r10724_p3652
mc16_13TeV:mc16_13TeV.364126.Sherpa_221_NNPDF30NNLO_Zee_MAXHTPTV500_1000.deriv.DAOD_SUSY3.e5299_s3126_r10724_p3652
mc16_13TeV:mc16_13TeV.364127.Sherpa_221_NNPDF30NNLO_Zee_MAXHTPTV1000_E_CMS.deriv.DAOD_SUSY3.e5299_s3126_r10724_p3652
mc16_13TeV:mc16_13TeV.364128.Sherpa_221_NNPDF30NNLO_Ztautau_MAXHTPTV0_70_CVetoBVeto.deriv.DAOD_SUSY3.e5307_s3126_r10724_p3652
mc16_13TeV:mc16_13TeV.364129.Sherpa_221_NNPDF30NNLO_Ztautau_MAXHTPTV0_70_CFilterBVeto.deriv.DAOD_SUSY3.e5307_s3126_r10724_p3652
mc16_13TeV:mc16_13TeV.364130.Sherpa_221_NNPDF30NNLO_Ztautau_MAXHTPTV0_70_BFilter.deriv.DAOD_SUSY3.e5307_s3126_r10724_p3652
mc16_13TeV:mc16_13TeV.364131.Sherpa_221_NNPDF30NNLO_Ztautau_MAXHTPTV70_140_CVetoBVeto.deriv.DAOD_SUSY3.e5307_s3126_r10724_p3652
mc16_13TeV:mc16_13TeV.364132.Sherpa_221_NNPDF30NNLO_Ztautau_MAXHTPTV70_140_CFilterBVeto.deriv.DAOD_SUSY3.e5307_s3126_r10724_p3652
mc16_13TeV:mc16_13TeV.364133.Sherpa_221_NNPDF30NNLO_Ztautau_MAXHTPTV70_140_BFilter.deriv.DAOD_SUSY3.e5307_s3126_r10724_p3652
mc16_13TeV:mc16_13TeV.364134.Sherpa_221_NNPDF30NNLO_Ztautau_MAXHTPTV140_280_CVetoBVeto.deriv.DAOD_SUSY3.e5307_s3126_r10724_p3652
mc16_13TeV:mc16_13TeV.364135.Sherpa_221_NNPDF30NNLO_Ztautau_MAXHTPTV140_280_CFilterBVeto.deriv.DAOD_SUSY3.e5307_s3126_r10724_p3652
mc16_13TeV:mc16_13TeV.364136.Sherpa_221_NNPDF30NNLO_Ztautau_MAXHTPTV140_280_BFilter.deriv.DAOD_SUSY3.e5307_s3126_r10724_p3652
mc16_13TeV:mc16_13TeV.364137.Sherpa_221_NNPDF30NNLO_Ztautau_MAXHTPTV280_500_CVetoBVeto.deriv.DAOD_SUSY3.e5307_s3126_r10724_p3652
mc16_13TeV:mc16_13TeV.364138.Sherpa_221_NNPDF30NNLO_Ztautau_MAXHTPTV280_500_CFilterBVeto.deriv.DAOD_SUSY3.e5313_s3126_r10724_p3652
mc16_13TeV:mc16_13TeV.364139.Sherpa_221_NNPDF30NNLO_Ztautau_MAXHTPTV280_500_BFilter.deriv.DAOD_SUSY3.e5313_s3126_r10724_p3652
mc16_13TeV:mc16_13TeV.364140.Sherpa_221_NNPDF30NNLO_Ztautau_MAXHTPTV500_1000.deriv.DAOD_SUSY3.e5307_s3126_r10724_p3652
mc16_13TeV:mc16_13TeV.364141.Sherpa_221_NNPDF30NNLO_Ztautau_MAXHTPTV1000_E_CMS.deriv.DAOD_SUSY3.e5307_s3126_r10724_p3652

# Diboson (full leptonic decay)
mc16_13TeV:mc16_13TeV.364250.Sherpa_222_NNPDF30NNLO_llll.deriv.DAOD_SUSY3.e5894_s3126_r10724_p3652
mc16_13TeV:mc16_13TeV.364253.Sherpa_222_NNPDF30NNLO_lllv.deriv.DAOD_SUSY3.e5916_s3126_r10724_p3652
mc16_13TeV:mc16_13TeV.364254.Sherpa_222_NNPDF30NNLO_llvv.deriv.DAOD_SUSY3.e5916_s3126_r10724_p3652
mc16_13TeV:mc16_13TeV.364255.Sherpa_222_NNPDF30NNLO_lvvv.deriv.DAOD_SUSY3.e5916_s3126_r10724_p3652
mc16_13TeV:mc16_13TeV.363494.Sherpa_221_NNPDF30NNLO_vvvv.deriv.DAOD_SUSY3.e5332_s3126_r10724_p3652
mc16_13TeV:mc16_13TeV.364286.Sherpa_222_NNPDF30NNLO_llvvjj_ss_EW4.deriv.DAOD_SUSY3.e6055_s3126_r10724_p3652

# Diboson (semi leptonic decay)
mc16_13TeV:mc16_13TeV.363355.Sherpa_221_NNPDF30NNLO_ZqqZvv.deriv.DAOD_SUSY3.e5525_s3126_r10724_p3652
mc16_13TeV:mc16_13TeV.363356.Sherpa_221_NNPDF30NNLO_ZqqZll.deriv.DAOD_SUSY3.e5525_s3126_r10724_p3652
mc16_13TeV:mc16_13TeV.363357.Sherpa_221_NNPDF30NNLO_WqqZvv.deriv.DAOD_SUSY3.e5525_s3126_r10724_p3652
mc16_13TeV:mc16_13TeV.363358.Sherpa_221_NNPDF30NNLO_WqqZll.deriv.DAOD_SUSY3.e5525_s3126_r10724_p3652
mc16_13TeV:mc16_13TeV.363359.Sherpa_221_NNPDF30NNLO_WpqqWmlv.deriv.DAOD_SUSY3.e5583_s3126_r10724_p3652
mc16_13TeV:mc16_13TeV.363360.Sherpa_221_NNPDF30NNLO_WplvWmqq.deriv.DAOD_SUSY3.e5983_s3126_r10724_p3652
mc16_13TeV:mc16_13TeV.363489.Sherpa_221_NNPDF30NNLO_WlvZqq.deriv.DAOD_SUSY3.e5525_s3126_r10724_p3652

# Diboson (EW VV+jj and loop-induced ggVV)
mc16_13TeV:mc16_13TeV.364283.Sherpa_222_NNPDF30NNLO_lllljj_EW6.deriv.DAOD_SUSY3.e6055_s3126_r10724_p3652
mc16_13TeV:mc16_13TeV.364284.Sherpa_222_NNPDF30NNLO_lllvjj_EW6.deriv.DAOD_SUSY3.e6055_s3126_r10724_p3652
mc16_13TeV:mc16_13TeV.364285.Sherpa_222_NNPDF30NNLO_llvvjj_EW6.deriv.DAOD_SUSY3.e6055_s3126_r10724_p3652
mc16_13TeV:mc16_13TeV.364287.Sherpa_222_NNPDF30NNLO_llvvjj_ss_EW6.deriv.DAOD_SUSY3.e6055_s3126_r10724_p3652
mc16_13TeV:mc16_13TeV.345705.Sherpa_222_NNPDF30NNLO_ggllll_0M4l130.deriv.DAOD_SUSY3.e6213_s3126_r10724_p3652
mc16_13TeV:mc16_13TeV.345706.Sherpa_222_NNPDF30NNLO_ggllll_130M4l.deriv.DAOD_SUSY3.e6213_s3126_r10724_p3652

# Tribosons
mc16_13TeV:mc16_13TeV.364242.Sherpa_222_NNPDF30NNLO_WWW_3l3v_EW6.deriv.DAOD_SUSY3.e5887_s3126_r10724_p3652
mc16_13TeV:mc16_13TeV.364243.Sherpa_222_NNPDF30NNLO_WWZ_4l2v_EW6.deriv.DAOD_SUSY3.e5887_s3126_r10724_p3652
mc16_13TeV:mc16_13TeV.364244.Sherpa_222_NNPDF30NNLO_WWZ_2l4v_EW6.deriv.DAOD_SUSY3.e5887_s3126_r10724_p3652
mc16_13TeV:mc16_13TeV.364245.Sherpa_222_NNPDF30NNLO_WZZ_5l1v_EW6.deriv.DAOD_SUSY3.e5887_s3126_r10724_p3652
mc16_13TeV:mc16_13TeV.364246.Sherpa_222_NNPDF30NNLO_WZZ_3l3v_EW6.deriv.DAOD_SUSY3.e5887_s3126_r10724_p3652
mc16_13TeV:mc16_13TeV.364247.Sherpa_222_NNPDF30NNLO_ZZZ_6l0v_EW6.deriv.DAOD_SUSY3.e5887_s3126_r10724_p3652
mc16_13TeV:mc16_13TeV.364248.Sherpa_222_NNPDF30NNLO_ZZZ_4l2v_EW6.deriv.DAOD_SUSY3.e5887_s3126_r10724_p3652
mc16_13TeV:mc16_13TeV.364249.Sherpa_222_NNPDF30NNLO_ZZZ_2l4v_EW6.deriv.DAOD_SUSY3.e5887_s3126_r10724_p3652
mc16_13TeV:mc16_13TeV.407311.Sherpa_221_NNPDF30NNLO_6l0v_EW6.deriv.DAOD_SUSY3.e5473_s3126_r10724_p3652
mc16_13TeV:mc16_13TeV.407312.Sherpa_221_NNPDF30NNLO_5l1v_EW6.deriv.DAOD_SUSY3.e5473_s3126_r10724_p3652
mc16_13TeV:mc16_13TeV.407313.Sherpa_221_NNPDF30NNLO_4l2v_EW6.deriv.DAOD_SUSY3.e5473_s3126_r10724_p3652
mc16_13TeV:mc16_13TeV.407314.Sherpa_221_NNPDF30NNLO_3l3v_EW6.deriv.DAOD_SUSY3.e5473_s3126_r10724_p3652
mc16_13TeV:mc16_13TeV.407315.Sherpa_221_NNPDF30NNLO_2l4v_EW6.deriv.DAOD_SUSY3.e5655_s3126_r10724_p3652

# low mass DY
mc16_13TeV:mc16_13TeV.364198.Sherpa_221_NN30NNLO_Zmm_Mll10_40_MAXHTPTV0_70_BVeto.deriv.DAOD_SUSY3.e5421_s3126_r10724_p3652
mc16_13TeV:mc16_13TeV.364199.Sherpa_221_NN30NNLO_Zmm_Mll10_40_MAXHTPTV0_70_BFilter.deriv.DAOD_SUSY3.e5421_s3126_r10724_p3652
mc16_13TeV:mc16_13TeV.364200.Sherpa_221_NN30NNLO_Zmm_Mll10_40_MAXHTPTV70_280_BVeto.deriv.DAOD_SUSY3.e5421_s3126_r10724_p3652
mc16_13TeV:mc16_13TeV.364204.Sherpa_221_NN30NNLO_Zee_Mll10_40_MAXHTPTV0_70_BVeto.deriv.DAOD_SUSY3.e5421_s3126_r10724_p3652
mc16_13TeV:mc16_13TeV.364205.Sherpa_221_NN30NNLO_Zee_Mll10_40_MAXHTPTV0_70_BFilter.deriv.DAOD_SUSY3.e5421_s3126_r10724_p3652
mc16_13TeV:mc16_13TeV.364207.Sherpa_221_NN30NNLO_Zee_Mll10_40_MAXHTPTV70_280_BFilter.deriv.DAOD_SUSY3.e5421_s3126_r10724_p3652
mc16_13TeV:mc16_13TeV.364213.Sherpa_221_NN30NNLO_Ztt_Mll10_40_MAXHTPTV70_280_BFilter.deriv.DAOD_SUSY3.e5421_s3126_r10724_p3652

# Higgs (overlapping to each other, various Higgs smaples are randomly listed here) TO BE UPDATED
mc16_13TeV:mc16_13TeV.345121.PowhegPy8EG_NNLOPS_nnlo_30_ggH125_tautaulm15hp20.deriv.DAOD_SUSY3.e5814_s3126_r10724_p3652
mc16_13TeV:mc16_13TeV.345122.PowhegPy8EG_NNLOPS_nnlo_30_ggH125_tautaulp15hm20.deriv.DAOD_SUSY3.e5814_s3126_r10724_p3652
mc16_13TeV:mc16_13TeV.342284.Pythia8EvtGen_A14NNPDF23LO_WH125_inc.deriv.DAOD_SUSY3.e4246_s3126_r10724_p3652
mc16_13TeV:mc16_13TeV.342285.Pythia8EvtGen_A14NNPDF23LO_ZH125_inc.deriv.DAOD_SUSY3.e4246_s3126_r10724_p3652
