mc16_13TeV:mc16_13TeV.363355.Sherpa_221_NNPDF30NNLO_ZqqZvv.deriv.DAOD_SUSY3.e5525_s3126_r9364_r9315_p3212                               
mc16_13TeV:mc16_13TeV.363356.Sherpa_221_NNPDF30NNLO_ZqqZll.deriv.DAOD_SUSY3.e5525_s3126_r9364_r9315_p3212                               
mc16_13TeV:mc16_13TeV.363357.Sherpa_221_NNPDF30NNLO_WqqZvv.deriv.DAOD_SUSY3.e5525_s3126_r9364_r9315_p3212                               
mc16_13TeV:mc16_13TeV.363358.Sherpa_221_NNPDF30NNLO_WqqZll.deriv.DAOD_SUSY3.e5525_s3126_r9364_r9315_p3212                               
mc16_13TeV:mc16_13TeV.363359.Sherpa_221_NNPDF30NNLO_WpqqWmlv.deriv.DAOD_SUSY3.e5583_s3126_r9364_r9315_p3212                             
mc16_13TeV:mc16_13TeV.363360.Sherpa_221_NNPDF30NNLO_WplvWmqq.deriv.DAOD_SUSY3.e5583_s3126_r9364_r9315_p3212                             
mc16_13TeV:mc16_13TeV.363489.Sherpa_221_NNPDF30NNLO_WlvZqq.deriv.DAOD_SUSY3.e5525_s3126_r9364_r9315_p3212  