mc16_13TeV:mc16_13TeV.410155.aMcAtNloPythia8EvtGen_MEN30NLO_A14N23LO_ttW.deriv.DAOD_SUSY3.e5070_s3126_r9364_r9315_p3212
mc16_13TeV:mc16_13TeV.410156.aMcAtNloPythia8EvtGen_MEN30NLO_A14N23LO_ttZnunu.deriv.DAOD_SUSY3.e5070_s3126_r9364_r9315_p3212
mc16_13TeV:mc16_13TeV.410218.aMcAtNloPythia8EvtGen_MEN30NLO_A14N23LO_ttee.deriv.DAOD_SUSY3.e5070_s3126_r9364_r9315_p3212              
mc16_13TeV:mc16_13TeV.410219.aMcAtNloPythia8EvtGen_MEN30NLO_A14N23LO_ttmumu.deriv.DAOD_SUSY3.e5070_s3126_r9364_r9315_p3212
mc16_13TeV:mc16_13TeV.410220.aMcAtNloPythia8EvtGen_MEN30NLO_A14N23LO_tttautau.deriv.DAOD_SUSY3.e5070_s3126_r9364_r9315_p3212
mc16_13TeV:mc16_13TeV.410080.MadGraphPythia8EvtGen_A14NNPDF23_4topSM.deriv.DAOD_SUSY3.e4111_s3126_r9364_r9315_p3212
mc16_13TeV:mc16_13TeV.410081.MadGraphPythia8EvtGen_A14NNPDF23_ttbarWW.deriv.DAOD_SUSY3.e4111_s3126_r9364_r9315_p3212