mc16_13TeV:mc16_13TeV.364100.Sherpa_221_NNPDF30NNLO_Zmumu_MAXHTPTV0_70_CVetoBVeto.deriv.DAOD_SUSY3.e5271_s3126_r10201_r10210_p3529
mc16_13TeV:mc16_13TeV.364101.Sherpa_221_NNPDF30NNLO_Zmumu_MAXHTPTV0_70_CFilterBVeto.deriv.DAOD_SUSY3.e5271_e5984_s3126_r10201_r10210_p3529
mc16_13TeV:mc16_13TeV.364101.Sherpa_221_NNPDF30NNLO_Zmumu_MAXHTPTV0_70_CFilterBVeto.deriv.DAOD_SUSY3.e5271_s3126_r10201_r10210_p3529
mc16_13TeV:mc16_13TeV.364102.Sherpa_221_NNPDF30NNLO_Zmumu_MAXHTPTV0_70_BFilter.deriv.DAOD_SUSY3.e5271_s3126_r10201_r10210_p3529
mc16_13TeV:mc16_13TeV.364103.Sherpa_221_NNPDF30NNLO_Zmumu_MAXHTPTV70_140_CVetoBVeto.deriv.DAOD_SUSY3.e5271_s3126_r10201_r10210_p3529
mc16_13TeV:mc16_13TeV.364104.Sherpa_221_NNPDF30NNLO_Zmumu_MAXHTPTV70_140_CFilterBVeto.deriv.DAOD_SUSY3.e5271_s3126_r10201_r10210_p3529
mc16_13TeV:mc16_13TeV.364105.Sherpa_221_NNPDF30NNLO_Zmumu_MAXHTPTV70_140_BFilter.deriv.DAOD_SUSY3.e5271_e5984_s3126_r10201_r10210_p3529
mc16_13TeV:mc16_13TeV.364105.Sherpa_221_NNPDF30NNLO_Zmumu_MAXHTPTV70_140_BFilter.deriv.DAOD_SUSY3.e5271_s3126_r10201_r10210_p3529
mc16_13TeV:mc16_13TeV.364106.Sherpa_221_NNPDF30NNLO_Zmumu_MAXHTPTV140_280_CVetoBVeto.deriv.DAOD_SUSY3.e5271_s3126_r10201_r10210_p3529
mc16_13TeV:mc16_13TeV.364107.Sherpa_221_NNPDF30NNLO_Zmumu_MAXHTPTV140_280_CFilterBVeto.deriv.DAOD_SUSY3.e5271_s3126_r10201_r10210_p3529
mc16_13TeV:mc16_13TeV.364108.Sherpa_221_NNPDF30NNLO_Zmumu_MAXHTPTV140_280_BFilter.deriv.DAOD_SUSY3.e5271_e5984_s3126_r10201_r10210_p3529
mc16_13TeV:mc16_13TeV.364108.Sherpa_221_NNPDF30NNLO_Zmumu_MAXHTPTV140_280_BFilter.deriv.DAOD_SUSY3.e5271_s3126_r10201_r10210_p3529
mc16_13TeV:mc16_13TeV.364109.Sherpa_221_NNPDF30NNLO_Zmumu_MAXHTPTV280_500_CVetoBVeto.deriv.DAOD_SUSY3.e5271_e5984_s3126_r10201_r10210_p3529
mc16_13TeV:mc16_13TeV.364109.Sherpa_221_NNPDF30NNLO_Zmumu_MAXHTPTV280_500_CVetoBVeto.deriv.DAOD_SUSY3.e5271_s3126_r10201_r10210_p3529
mc16_13TeV:mc16_13TeV.364110.Sherpa_221_NNPDF30NNLO_Zmumu_MAXHTPTV280_500_CFilterBVeto.deriv.DAOD_SUSY3.e5271_s3126_r10201_r10210_p3529
mc16_13TeV:mc16_13TeV.364111.Sherpa_221_NNPDF30NNLO_Zmumu_MAXHTPTV280_500_BFilter.deriv.DAOD_SUSY3.e5271_s3126_r10201_r10210_p3529
mc16_13TeV:mc16_13TeV.364112.Sherpa_221_NNPDF30NNLO_Zmumu_MAXHTPTV500_1000.deriv.DAOD_SUSY3.e5271_e5984_s3126_r10201_r10210_p3529
mc16_13TeV:mc16_13TeV.364112.Sherpa_221_NNPDF30NNLO_Zmumu_MAXHTPTV500_1000.deriv.DAOD_SUSY3.e5271_s3126_r10201_r10210_p3529
mc16_13TeV:mc16_13TeV.364113.Sherpa_221_NNPDF30NNLO_Zmumu_MAXHTPTV1000_E_CMS.deriv.DAOD_SUSY3.e5271_s3126_r10201_r10210_p3529
mc16_13TeV:mc16_13TeV.364114.Sherpa_221_NNPDF30NNLO_Zee_MAXHTPTV0_70_CVetoBVeto.deriv.DAOD_SUSY3.e5299_s3126_r10201_r10210_p3529
mc16_13TeV:mc16_13TeV.364115.Sherpa_221_NNPDF30NNLO_Zee_MAXHTPTV0_70_CFilterBVeto.deriv.DAOD_SUSY3.e5299_e5984_s3126_r10201_r10210_p3529
mc16_13TeV:mc16_13TeV.364116.Sherpa_221_NNPDF30NNLO_Zee_MAXHTPTV0_70_BFilter.deriv.DAOD_SUSY3.e5299_e5984_s3126_r10201_r10210_p3529
mc16_13TeV:mc16_13TeV.364117.Sherpa_221_NNPDF30NNLO_Zee_MAXHTPTV70_140_CVetoBVeto.deriv.DAOD_SUSY3.e5299_e5984_s3126_r10201_r10210_p3529
mc16_13TeV:mc16_13TeV.364118.Sherpa_221_NNPDF30NNLO_Zee_MAXHTPTV70_140_CFilterBVeto.deriv.DAOD_SUSY3.e5299_e5984_s3126_r10201_r10210_p3529
mc16_13TeV:mc16_13TeV.364119.Sherpa_221_NNPDF30NNLO_Zee_MAXHTPTV70_140_BFilter.deriv.DAOD_SUSY3.e5299_e5984_s3126_r10201_r10210_p3529
mc16_13TeV:mc16_13TeV.364120.Sherpa_221_NNPDF30NNLO_Zee_MAXHTPTV140_280_CVetoBVeto.deriv.DAOD_SUSY3.e5299_e5984_s3126_r10201_r10210_p3529
mc16_13TeV:mc16_13TeV.364121.Sherpa_221_NNPDF30NNLO_Zee_MAXHTPTV140_280_CFilterBVeto.deriv.DAOD_SUSY3.e5299_e5984_s3126_r10201_r10210_p3529
mc16_13TeV:mc16_13TeV.364122.Sherpa_221_NNPDF30NNLO_Zee_MAXHTPTV140_280_BFilter.deriv.DAOD_SUSY3.e5299_e5984_s3126_r10201_r10210_p3529
mc16_13TeV:mc16_13TeV.364123.Sherpa_221_NNPDF30NNLO_Zee_MAXHTPTV280_500_CVetoBVeto.deriv.DAOD_SUSY3.e5299_e5984_s3126_r10201_r10210_p3529
mc16_13TeV:mc16_13TeV.364124.Sherpa_221_NNPDF30NNLO_Zee_MAXHTPTV280_500_CFilterBVeto.deriv.DAOD_SUSY3.e5299_e5984_s3126_r10201_r10210_p3529
mc16_13TeV:mc16_13TeV.364125.Sherpa_221_NNPDF30NNLO_Zee_MAXHTPTV280_500_BFilter.deriv.DAOD_SUSY3.e5299_e5984_s3126_r10201_r10210_p3529
mc16_13TeV:mc16_13TeV.364126.Sherpa_221_NNPDF30NNLO_Zee_MAXHTPTV500_1000.deriv.DAOD_SUSY3.e5299_e5984_s3126_r10201_r10210_p3529
mc16_13TeV:mc16_13TeV.364127.Sherpa_221_NNPDF30NNLO_Zee_MAXHTPTV1000_E_CMS.deriv.DAOD_SUSY3.e5299_e5984_s3126_r10201_r10210_p3529
mc16_13TeV:mc16_13TeV.364128.Sherpa_221_NNPDF30NNLO_Ztautau_MAXHTPTV0_70_CVetoBVeto.deriv.DAOD_SUSY3.e5307_e5984_s3126_r10201_r10210_p3529
mc16_13TeV:mc16_13TeV.364129.Sherpa_221_NNPDF30NNLO_Ztautau_MAXHTPTV0_70_CFilterBVeto.deriv.DAOD_SUSY3.e5307_e5984_s3126_r10201_r10210_p3529
mc16_13TeV:mc16_13TeV.364130.Sherpa_221_NNPDF30NNLO_Ztautau_MAXHTPTV0_70_BFilter.deriv.DAOD_SUSY3.e5307_e5984_s3126_r10201_r10210_p3529
mc16_13TeV:mc16_13TeV.364131.Sherpa_221_NNPDF30NNLO_Ztautau_MAXHTPTV70_140_CVetoBVeto.deriv.DAOD_SUSY3.e5307_e5984_s3126_r10201_r10210_p3529
mc16_13TeV:mc16_13TeV.364132.Sherpa_221_NNPDF30NNLO_Ztautau_MAXHTPTV70_140_CFilterBVeto.deriv.DAOD_SUSY3.e5307_e5984_s3126_r10201_r10210_p3529
mc16_13TeV:mc16_13TeV.364133.Sherpa_221_NNPDF30NNLO_Ztautau_MAXHTPTV70_140_BFilter.deriv.DAOD_SUSY3.e5307_e5984_s3126_r10201_r10210_p3529
mc16_13TeV:mc16_13TeV.364134.Sherpa_221_NNPDF30NNLO_Ztautau_MAXHTPTV140_280_CVetoBVeto.deriv.DAOD_SUSY3.e5307_e5984_s3126_r10201_r10210_p3529
mc16_13TeV:mc16_13TeV.364135.Sherpa_221_NNPDF30NNLO_Ztautau_MAXHTPTV140_280_CFilterBVeto.deriv.DAOD_SUSY3.e5307_e5984_s3126_r10201_r10210_p3529
mc16_13TeV:mc16_13TeV.364136.Sherpa_221_NNPDF30NNLO_Ztautau_MAXHTPTV140_280_BFilter.deriv.DAOD_SUSY3.e5307_e5984_s3126_r10201_r10210_p3529
mc16_13TeV:mc16_13TeV.364137.Sherpa_221_NNPDF30NNLO_Ztautau_MAXHTPTV280_500_CVetoBVeto.deriv.DAOD_SUSY3.e5307_e5984_s3126_r10201_r10210_p3529
mc16_13TeV:mc16_13TeV.364138.Sherpa_221_NNPDF30NNLO_Ztautau_MAXHTPTV280_500_CFilterBVeto.deriv.DAOD_SUSY3.e5313_e5984_s3126_r10201_r10210_p3529
mc16_13TeV:mc16_13TeV.364139.Sherpa_221_NNPDF30NNLO_Ztautau_MAXHTPTV280_500_BFilter.deriv.DAOD_SUSY3.e5313_e5984_s3126_r10201_r10210_p3529
mc16_13TeV:mc16_13TeV.364140.Sherpa_221_NNPDF30NNLO_Ztautau_MAXHTPTV500_1000.deriv.DAOD_SUSY3.e5307_e5984_s3126_r10201_r10210_p3529
mc16_13TeV:mc16_13TeV.364141.Sherpa_221_NNPDF30NNLO_Ztautau_MAXHTPTV1000_E_CMS.deriv.DAOD_SUSY3.e5307_e5984_s3126_r10201_r10210_p3529
mc16_13TeV:mc16_13TeV.364142.Sherpa_221_NNPDF30NNLO_Znunu_MAXHTPTV0_70_CVetoBVeto.deriv.DAOD_SUSY3.e5308_e5984_s3126_r10201_r10210_p3529
mc16_13TeV:mc16_13TeV.364143.Sherpa_221_NNPDF30NNLO_Znunu_MAXHTPTV0_70_CFilterBVeto.deriv.DAOD_SUSY3.e5308_e5984_s3126_r10201_r10210_p3529
mc16_13TeV:mc16_13TeV.364144.Sherpa_221_NNPDF30NNLO_Znunu_MAXHTPTV0_70_BFilter.deriv.DAOD_SUSY3.e5308_e5984_s3126_r10201_r10210_p3529
mc16_13TeV:mc16_13TeV.364145.Sherpa_221_NNPDF30NNLO_Znunu_MAXHTPTV70_140_CVetoBVeto.deriv.DAOD_SUSY3.e5308_e5984_s3126_r10201_r10210_p3529
mc16_13TeV:mc16_13TeV.364146.Sherpa_221_NNPDF30NNLO_Znunu_MAXHTPTV70_140_CFilterBVeto.deriv.DAOD_SUSY3.e5308_e5984_s3126_r10201_r10210_p3529
mc16_13TeV:mc16_13TeV.364147.Sherpa_221_NNPDF30NNLO_Znunu_MAXHTPTV70_140_BFilter.deriv.DAOD_SUSY3.e5308_e5984_s3126_r10201_r10210_p3529
mc16_13TeV:mc16_13TeV.364148.Sherpa_221_NNPDF30NNLO_Znunu_MAXHTPTV140_280_CVetoBVeto.deriv.DAOD_SUSY3.e5308_e5984_s3126_r10201_r10210_p3529
mc16_13TeV:mc16_13TeV.364149.Sherpa_221_NNPDF30NNLO_Znunu_MAXHTPTV140_280_CFilterBVeto.deriv.DAOD_SUSY3.e5308_e5984_s3126_r10201_r10210_p3529
mc16_13TeV:mc16_13TeV.364150.Sherpa_221_NNPDF30NNLO_Znunu_MAXHTPTV140_280_BFilter.deriv.DAOD_SUSY3.e5308_e5984_s3126_r10201_r10210_p3529
mc16_13TeV:mc16_13TeV.364151.Sherpa_221_NNPDF30NNLO_Znunu_MAXHTPTV280_500_CVetoBVeto.deriv.DAOD_SUSY3.e5308_e5984_s3126_r10201_r10210_p3529
mc16_13TeV:mc16_13TeV.364152.Sherpa_221_NNPDF30NNLO_Znunu_MAXHTPTV280_500_CFilterBVeto.deriv.DAOD_SUSY3.e5308_e5984_s3126_r10201_r10210_p3529
mc16_13TeV:mc16_13TeV.364153.Sherpa_221_NNPDF30NNLO_Znunu_MAXHTPTV280_500_BFilter.deriv.DAOD_SUSY3.e5308_e5984_s3126_r10201_r10210_p3529
mc16_13TeV:mc16_13TeV.364154.Sherpa_221_NNPDF30NNLO_Znunu_MAXHTPTV500_1000.deriv.DAOD_SUSY3.e5308_e5984_s3126_r10201_r10210_p3529
mc16_13TeV:mc16_13TeV.364155.Sherpa_221_NNPDF30NNLO_Znunu_MAXHTPTV1000_E_CMS.deriv.DAOD_SUSY3.e5308_e5984_s3126_r10201_r10210_p3529
