broken 123078 0% user.hucheng.XAMPP.HadHad.18mc16dv01.2.Higgs/ 
broken 123098 0% user.hucheng.XAMPP.HadHad.18mc16dv01.2.Sherpa221_VV/ 
broken 123124 0% user.hucheng.XAMPP.HadHad.18mc16dv01.2.Sherpa221_Znunu/ 
done 122860 100% user.hucheng.XAMPP.HadHad.18datav01.2.data15_periodD/ 
done 122861 100% user.hucheng.XAMPP.HadHad.18datav01.2.data15_periodE/ 
done 122872 100% user.hucheng.XAMPP.HadHad.18datav01.2.data15_periodF/ 
done 122876 100% user.hucheng.XAMPP.HadHad.18datav01.2.data15_periodG/ 
done 122877 100% user.hucheng.XAMPP.HadHad.18datav01.2.data15_periodH/ 
done 122878 100% user.hucheng.XAMPP.HadHad.18datav01.2.data15_periodJ/ 
done 122880 100% user.hucheng.XAMPP.HadHad.18datav01.2.data16_periodG/ 
done 122885 100% user.hucheng.XAMPP.HadHad.18datav01.2.data16_periodF/ 
done 122888 100% user.hucheng.XAMPP.HadHad.18datav01.2.data16_periodE/ 
done 122889 100% user.hucheng.XAMPP.HadHad.18datav01.2.data16_periodD/ 
done 122892 100% user.hucheng.XAMPP.HadHad.18datav01.2.data16_periodC/ 
done 122894 100% user.hucheng.XAMPP.HadHad.18datav01.2.data16_periodB/ 
done 122898 100% user.hucheng.XAMPP.HadHad.18datav01.2.data16_periodA/ 
done 122900 100% user.hucheng.XAMPP.HadHad.18datav01.2.data16_periodL/ 
done 122905 100% user.hucheng.XAMPP.HadHad.18datav01.2.data16_periodK/ 
done 122907 100% user.hucheng.XAMPP.HadHad.18datav01.2.data16_periodI/ 
done 122908 100% user.hucheng.XAMPP.HadHad.18datav01.2.data18_periodL/ 
done 122916 100% user.hucheng.XAMPP.HadHad.18datav01.2.data18_periodI/ 
done 122921 100% user.hucheng.XAMPP.HadHad.18datav01.2.data18_periodD/ 
done 122928 100% user.hucheng.XAMPP.HadHad.18datav01.2.data18_periodF/ 
done 122932 100% user.hucheng.XAMPP.HadHad.18datav01.2.data18_periodC/ 
done 122935 100% user.hucheng.XAMPP.HadHad.18datav01.2.data18_periodB/ 
done 122936 100% user.hucheng.XAMPP.HadHad.18datav01.2.data17_periodF/ 
done 122941 100% user.hucheng.XAMPP.HadHad.18datav01.2.data17_periodD/ 
done 122944 100% user.hucheng.XAMPP.HadHad.18datav01.2.data17_periodE/ 
done 122947 100% user.hucheng.XAMPP.HadHad.18datav01.2.data17_periodB/ 
done 122950 100% user.hucheng.XAMPP.HadHad.18datav01.2.data17_periodC/ 
done 122952 100% user.hucheng.XAMPP.HadHad.18datav01.2.data17_periodK/ 
done 122953 100% user.hucheng.XAMPP.HadHad.18datav01.2.data17_periodH/ 
done 122957 100% user.hucheng.XAMPP.HadHad.18datav01.2.data17_periodI/ 
done 122964 100% user.hucheng.XAMPP.HadHad.18mc16av01.2.Higgs/ 
done 122971 100% user.hucheng.XAMPP.HadHad.18mc16av01.2.PowHegPy8_ttbar_incl/ 
done 122972 100% user.hucheng.XAMPP.HadHad.18mc16av01.2.MG5Py8_tZ_noAllHad/ 
done 122974 100% user.hucheng.XAMPP.HadHad.18mc16av01.2.Sherpa222_VV/ 
done 122976 100% user.hucheng.XAMPP.HadHad.18mc16av01.2.Sherpa221_VV/ 
done 122979 100% user.hucheng.XAMPP.HadHad.18mc16av01.2.Sherpa221_Ztautau/ 
done 122982 100% user.hucheng.XAMPP.HadHad.18mc16av01.2.Sherpa221_Wtaunu/ 
done 122988 100% user.hucheng.XAMPP.HadHad.18mc16av01.2.Sherpa221_Znunu/ 
done 122989 100% user.hucheng.XAMPP.HadHad.18mc16av01.2.PowhegPy_top/ 
done 122993 100% user.hucheng.XAMPP.HadHad.18mc16av01.2.MG5Py8_4t/ 
done 122994 100% user.hucheng.XAMPP.HadHad.18mc16av01.2.MG5Py8_tW/ 
done 122999 100% user.hucheng.XAMPP.HadHad.18mc16av01.2.Sherpa222_VVV/ 
done 123005 100% user.hucheng.XAMPP.HadHad.18mc16av01.2.Sherpa221_Wenu/ 
done 123014 100% user.hucheng.XAMPP.HadHad.18mc16av01.2.Sherpa221_Zmumu/ 
done 123015 100% user.hucheng.XAMPP.HadHad.18mc16av01.2.aMCatNLOPy8_ttV/ 
done 123025 100% user.hucheng.XAMPP.HadHad.18mc16av01.2.Sherpa221_Zee/ 
done 123028 100% user.hucheng.XAMPP.HadHad.18mc16av01.2.Wh_tau_200_0/ 
done 123029 100% user.hucheng.XAMPP.HadHad.18mc16av01.2.Wh_tau_375_0/ 
done 123032 100% user.hucheng.XAMPP.HadHad.18mc16av01.2.StauStau_160_1/ 
done 123034 100% user.hucheng.XAMPP.HadHad.18mc16av01.2.StauStau_200_40/ 
done 123036 100% user.hucheng.XAMPP.HadHad.18mc16av01.2.StauStau_120_40/ 
done 123038 100% user.hucheng.XAMPP.HadHad.18mc16av01.2.StauStau_240_40/ 
done 123039 100% user.hucheng.XAMPP.HadHad.18mc16av01.2.StauStau_200_1_mmix_s12/ 
done 123040 100% user.hucheng.XAMPP.HadHad.18mc16av01.2.StauStau_160_40/ 
done 123042 100% user.hucheng.XAMPP.HadHad.18mc16av01.2.StauStau_280_40/ 
done 123043 100% user.hucheng.XAMPP.HadHad.18mc16av01.2.StauStau_240_80/ 
done 123048 100% user.hucheng.XAMPP.HadHad.18mc16av01.2.StauStau_200_1_2LepFilter/ 
done 123050 100% user.hucheng.XAMPP.HadHad.18mc16av01.2.StauStau_200_1_mmix_s12_Dm100/ 
done 123051 100% user.hucheng.XAMPP.HadHad.18mc16av01.2.StauStau_200_1/ 
done 123053 100% user.hucheng.XAMPP.HadHad.18mc16av01.2.StauStau_160_80/ 
done 123055 100% user.hucheng.XAMPP.HadHad.18mc16av01.2.Wh_tau_190_60/ 
done 123058 100% user.hucheng.XAMPP.HadHad.18mc16av01.2.StauStau_120_1/ 
done 123062 100% user.hucheng.XAMPP.HadHad.18mc16av01.2.StauStau_80_1/ 
done 123067 100% user.hucheng.XAMPP.HadHad.18mc16av01.2.StauStau_280_1/ 
done 123083 100% user.hucheng.XAMPP.HadHad.18mc16dv01.2.Sherpa221_VVV/ 
done 123084 100% user.hucheng.XAMPP.HadHad.18mc16dv01.2.PowHegPy8_ttbar_incl/ 
done 123086 100% user.hucheng.XAMPP.HadHad.18mc16dv01.2.MG5Py8_tZ_noAllHad/ 
done 123089 100% user.hucheng.XAMPP.HadHad.18mc16dv01.2.Sherpa222_VV/ 
done 123110 100% user.hucheng.XAMPP.HadHad.18mc16dv01.2.Sherpa221_Ztautau/ 
done 123114 100% user.hucheng.XAMPP.HadHad.18mc16dv01.2.Sherpa221_Wtaunu/ 
done 123126 100% user.hucheng.XAMPP.HadHad.18mc16dv01.2.PowhegPy_top/ 
done 123148 100% user.hucheng.XAMPP.HadHad.18mc16dv01.2.Sherpa221_Wmunu/ 
done 123151 100% user.hucheng.XAMPP.HadHad.18mc16dv01.2.MG5Py8_tW/ 
done 123152 100% user.hucheng.XAMPP.HadHad.18mc16dv01.2.MG5Py8_4t/ 
done 123153 100% user.hucheng.XAMPP.HadHad.18mc16dv01.2.Sherpa222_VVV/ 
done 123155 100% user.hucheng.XAMPP.HadHad.18mc16dv01.2.Sherpa221_Wenu/ 
done 123173 100% user.hucheng.XAMPP.HadHad.18mc16dv01.2.Sherpa221_Zmumu/ 
done 123175 100% user.hucheng.XAMPP.HadHad.18mc16dv01.2.aMCatNLOPy8_ttV/ 
done 123199 100% user.hucheng.XAMPP.HadHad.18mc16dv01.2.Sherpa221_Zee/ 
done 123204 100% user.hucheng.XAMPP.HadHad.18mc16dv01.2.Wh_tau_200_0/ 
done 123211 100% user.hucheng.XAMPP.HadHad.18mc16dv01.2.Wh_tau_375_0/ 
done 123218 100% user.hucheng.XAMPP.HadHad.18mc16dv01.2.StauStau_160_1/ 
done 123220 100% user.hucheng.XAMPP.HadHad.18mc16dv01.2.StauStau_200_40/ 
done 123223 100% user.hucheng.XAMPP.HadHad.18mc16dv01.2.StauStau_120_40/ 
done 123225 100% user.hucheng.XAMPP.HadHad.18mc16dv01.2.StauStau_240_40/ 
done 123232 100% user.hucheng.XAMPP.HadHad.18mc16dv01.2.StauStau_200_1_mmix_s12/ 
done 123234 100% user.hucheng.XAMPP.HadHad.18mc16dv01.2.StauStau_160_40/ 
done 123242 100% user.hucheng.XAMPP.HadHad.18mc16dv01.2.StauStau_280_40/ 
done 123251 100% user.hucheng.XAMPP.HadHad.18mc16dv01.2.StauStau_240_80/ 
done 123254 100% user.hucheng.XAMPP.HadHad.18mc16dv01.2.StauStau_200_1_2LepFilter/ 
done 123257 100% user.hucheng.XAMPP.HadHad.18mc16dv01.2.StauStau_200_1_mmix_s12_Dm100/ 
done 123258 100% user.hucheng.XAMPP.HadHad.18mc16dv01.2.StauStau_200_1/ 
done 123264 100% user.hucheng.XAMPP.HadHad.18mc16dv01.2.StauStau_160_80/ 
done 123267 100% user.hucheng.XAMPP.HadHad.18mc16dv01.2.Wh_tau_190_60/ 
done 123272 100% user.hucheng.XAMPP.HadHad.18mc16dv01.2.StauStau_80_1/ 
done 123273 100% user.hucheng.XAMPP.HadHad.18mc16dv01.2.StauStau_280_1/ 
done 126285 100% user.hucheng.XAMPP.HadHad.18mc16av01.2.Sherpa221_VVV/ 
done 126291 100% user.hucheng.XAMPP.HadHad.18mc16av01.2.Sherpa221_Wmunu/ 
done 126292 100% user.hucheng.XAMPP.HadHad.18mc16dv01.2.StauStau_120_1/ 
exhausted 122919 93% user.hucheng.XAMPP.HadHad.18datav01.2.data18_periodK/ 
